EESchema Schematic File Version 4
EELAYER 30 0
EELAYER END
$Descr A4 11693 8268
encoding utf-8
Sheet 2 3
Title ""
Date ""
Rev ""
Comp ""
Comment1 ""
Comment2 ""
Comment3 ""
Comment4 ""
$EndDescr
Text Label 1600 3900 2    50   ~ 0
DRAM_A0
Text Label 1600 4000 2    50   ~ 0
DRAM_A1
Text Label 1600 4100 2    50   ~ 0
DRAM_A2
Text Label 1600 4200 2    50   ~ 0
DRAM_A3
Text Label 1600 4300 2    50   ~ 0
DRAM_A4
Text Label 1600 4400 2    50   ~ 0
DRAM_A5
Text Label 1600 4500 2    50   ~ 0
DRAM_A6
Text Label 1600 4600 2    50   ~ 0
DRAM_A7
Text Label 1600 4700 2    50   ~ 0
DRAM_A8
Text Label 1600 4800 2    50   ~ 0
DRAM_A9
Text Label 1600 4900 2    50   ~ 0
DRAM_A10
Text Label 1600 5000 2    50   ~ 0
DRAM_A11
Text Label 1600 5100 2    50   ~ 0
DRAM_A12
Text Label 1600 5200 2    50   ~ 0
DRAM_A13
Text Label 1600 5300 2    50   ~ 0
DRAM_A14
Text Label 3600 4500 0    50   ~ 0
DRAM_BA0
Text Label 3600 4600 0    50   ~ 0
DRAM_BA1
Text Label 3600 4700 0    50   ~ 0
DRAM_BA2
Text Label 7100 4050 2    50   ~ 0
DRAM_BA0
Text Label 7100 4150 2    50   ~ 0
DRAM_BA1
Text Label 7100 4250 2    50   ~ 0
DRAM_BA2
Text Label 7100 4450 2    50   ~ 0
DRAM_CLK+
Text Label 7100 4550 2    50   ~ 0
DRAM_CLK-
Text Label 7100 4650 2    50   ~ 0
DRAM_CLKEN0
Text Label 3600 5100 0    50   ~ 0
DRAM_CLK+
Text Label 3600 5000 0    50   ~ 0
DRAM_CLK-
Text Label 3600 4800 0    50   ~ 0
DRAM_CLKEN0
Text Label 7100 5050 2    50   ~ 0
~DRAM_CS0
Text Label 3600 4300 0    50   ~ 0
~DRAM_RAS
Text Label 7100 5250 2    50   ~ 0
~DRAM_RAS
Text Label 7100 4950 2    50   ~ 0
~DRAM_RST
Text Label 3600 6200 0    50   ~ 0
~DRAM_CAS
Text Label 7100 5350 2    50   ~ 0
~DRAM_CAS
Text Label 7100 5450 2    50   ~ 0
~DRAM_WE
Text Label 3600 5600 0    50   ~ 0
~DRAM_WE
Text Label 3600 4100 0    50   ~ 0
DRAM_ODT0
Text Label 7100 5550 2    50   ~ 0
DRAM_ODT0
Text Label 3600 4000 0    50   ~ 0
DRAM_DQMU
Text Label 3600 3900 0    50   ~ 0
DRAM_DQML
Text Label 8500 4050 0    50   ~ 0
DRAM_DQMU
Text Label 8500 4150 0    50   ~ 0
DRAM_DQML
Text Label 3600 5400 0    50   ~ 0
DRAM_DQSU+
Text Label 3600 5500 0    50   ~ 0
DRAM_DQSU-
Text Label 3600 5200 0    50   ~ 0
DRAM_DQSL+
Text Label 3600 5300 0    50   ~ 0
DRAM_DQSL-
Text Label 8500 4350 0    50   ~ 0
DRAM_DQSU+
Text Label 8500 4450 0    50   ~ 0
DRAM_DQSU-
Text Label 8500 4550 0    50   ~ 0
DRAM_DQSL+
Text Label 8500 4650 0    50   ~ 0
DRAM_DQSL-
$Comp
L Device:R_Small R4
U 1 1 6130F8B8
P 8900 5100
F 0 "R4" H 8959 5146 50  0000 L CNN
F 1 "240R" H 8959 5055 50  0000 L CNN
F 2 "Resistor_SMD:R_0201_0603Metric" H 8900 5100 50  0001 C CNN
F 3 "~" H 8900 5100 50  0001 C CNN
F 4 "1%" H 8900 5100 50  0001 C CNN "Tolerance"
	1    8900 5100
	1    0    0    -1  
$EndComp
Wire Wire Line
	8500 4850 8900 4850
Wire Wire Line
	8900 4850 8900 5000
$Comp
L power:GND #PWR048
U 1 1 61310F90
P 8900 5250
F 0 "#PWR048" H 8900 5000 50  0001 C CNN
F 1 "GND" H 8905 5077 50  0000 C CNN
F 2 "" H 8900 5250 50  0001 C CNN
F 3 "" H 8900 5250 50  0001 C CNN
	1    8900 5250
	1    0    0    -1  
$EndComp
Wire Wire Line
	8900 5200 8900 5250
$Comp
L power:+1V35 #PWR043
U 1 1 613155D0
P 7700 2100
F 0 "#PWR043" H 7700 1950 50  0001 C CNN
F 1 "+1V35" V 7715 2228 50  0000 L CNN
F 2 "" H 7700 2100 50  0001 C CNN
F 3 "" H 7700 2100 50  0001 C CNN
	1    7700 2100
	1    0    0    -1  
$EndComp
$Comp
L power:+1V35 #PWR045
U 1 1 613160A6
P 7800 2100
F 0 "#PWR045" H 7800 1950 50  0001 C CNN
F 1 "+1V35" V 7815 2228 50  0000 L CNN
F 2 "" H 7800 2100 50  0001 C CNN
F 3 "" H 7800 2100 50  0001 C CNN
	1    7800 2100
	1    0    0    -1  
$EndComp
Text GLabel 7900 2100 1    50   Input ~ 0
DRAM_VREF
Text GLabel 8000 2100 1    50   Input ~ 0
DRAM_VREF
Wire Wire Line
	8000 2100 8000 2150
Wire Wire Line
	7900 2100 7900 2150
Wire Wire Line
	7700 2100 7700 2150
Wire Wire Line
	7800 2100 7800 2150
Text Label 1600 5400 2    50   ~ 0
DRAM_A15
Text Label 7100 4750 2    50   ~ 0
DRAM_CLKEN1
Text Label 7100 5650 2    50   ~ 0
DRAM_ODT1
Text Label 7100 5150 2    50   ~ 0
~DRAM_CS1
Text Label 3600 4900 0    50   ~ 0
DRAM_CLKEN1
Text Label 3600 4200 0    50   ~ 0
DRAM_ODT1
Text Label 3600 6300 0    50   ~ 0
~DRAM_CS0
Text Label 3600 6400 0    50   ~ 0
~DRAM_CS1
$Comp
L Device:R_Small R3
U 1 1 613AE322
P 8550 5100
F 0 "R3" H 8609 5146 50  0000 L CNN
F 1 "240R" H 8609 5055 50  0000 L CNN
F 2 "Resistor_SMD:R_0201_0603Metric" H 8550 5100 50  0001 C CNN
F 3 "~" H 8550 5100 50  0001 C CNN
F 4 "1%" H 8550 5100 50  0001 C CNN "Tolerance"
	1    8550 5100
	1    0    0    -1  
$EndComp
Wire Wire Line
	8550 4950 8550 5000
$Comp
L power:GND #PWR047
U 1 1 613AE329
P 8550 5250
F 0 "#PWR047" H 8550 5000 50  0001 C CNN
F 1 "GND" H 8555 5077 50  0000 C CNN
F 2 "" H 8550 5250 50  0001 C CNN
F 3 "" H 8550 5250 50  0001 C CNN
	1    8550 5250
	1    0    0    -1  
$EndComp
Wire Wire Line
	8550 5200 8550 5250
Wire Wire Line
	8500 4950 8550 4950
$Comp
L Device:R_Small R1
U 1 1 613BD8EA
P 3750 5700
F 0 "R1" V 3646 5700 50  0000 C CNN
F 1 "240R" V 3555 5700 50  0000 C CNN
F 2 "Resistor_SMD:R_0201_0603Metric" H 3750 5700 50  0001 C CNN
F 3 "~" H 3750 5700 50  0001 C CNN
F 4 "1%" V 3750 5700 50  0001 C CNN "Tolerance"
	1    3750 5700
	0    -1   -1   0   
$EndComp
Wire Wire Line
	3600 5700 3650 5700
$Comp
L power:GND #PWR029
U 1 1 613BD8F1
P 3900 5700
F 0 "#PWR029" H 3900 5450 50  0001 C CNN
F 1 "GND" V 3905 5572 50  0000 R CNN
F 2 "" H 3900 5700 50  0001 C CNN
F 3 "" H 3900 5700 50  0001 C CNN
	1    3900 5700
	0    -1   -1   0   
$EndComp
Wire Wire Line
	3850 5700 3900 5700
$Comp
L power:GND #PWR046
U 1 1 613D71E8
P 7850 5900
F 0 "#PWR046" H 7850 5650 50  0001 C CNN
F 1 "GND" V 7855 5772 50  0000 R CNN
F 2 "" H 7850 5900 50  0001 C CNN
F 3 "" H 7850 5900 50  0001 C CNN
	1    7850 5900
	1    0    0    -1  
$EndComp
Wire Wire Line
	7750 5850 7750 5900
$Comp
L power:GND #PWR044
U 1 1 613D7AB3
P 7750 5900
F 0 "#PWR044" H 7750 5650 50  0001 C CNN
F 1 "GND" V 7755 5772 50  0000 R CNN
F 2 "" H 7750 5900 50  0001 C CNN
F 3 "" H 7750 5900 50  0001 C CNN
	1    7750 5900
	1    0    0    -1  
$EndComp
Wire Wire Line
	7850 5850 7850 5900
$Comp
L Device:C_Small C20
U 1 1 613F364A
P 5600 1550
F 0 "C20" H 5692 1596 50  0000 L CNN
F 1 "100nF" H 5692 1505 50  0000 L CNN
F 2 "Capacitor_SMD:C_0201_0603Metric" H 5600 1550 50  0001 C CNN
F 3 "~" H 5600 1550 50  0001 C CNN
	1    5600 1550
	1    0    0    -1  
$EndComp
Text GLabel 5600 1400 1    50   Input ~ 0
DRAM_VREF
Text GLabel 6050 1400 1    50   Input ~ 0
DRAM_VREF
Wire Wire Line
	5600 1400 5600 1450
Wire Wire Line
	6050 1400 6050 1450
$Comp
L power:GND #PWR041
U 1 1 613F6A31
P 5600 1700
F 0 "#PWR041" H 5600 1450 50  0001 C CNN
F 1 "GND" H 5605 1527 50  0000 C CNN
F 2 "" H 5600 1700 50  0001 C CNN
F 3 "" H 5600 1700 50  0001 C CNN
	1    5600 1700
	1    0    0    -1  
$EndComp
$Comp
L power:GND #PWR042
U 1 1 613F8273
P 6050 1700
F 0 "#PWR042" H 6050 1450 50  0001 C CNN
F 1 "GND" H 6055 1527 50  0000 C CNN
F 2 "" H 6050 1700 50  0001 C CNN
F 3 "" H 6050 1700 50  0001 C CNN
	1    6050 1700
	1    0    0    -1  
$EndComp
Wire Wire Line
	6050 1650 6050 1700
Wire Wire Line
	5600 1650 5600 1700
$Comp
L Device:C_Small C21
U 1 1 613F960E
P 6050 1550
F 0 "C21" H 6142 1596 50  0000 L CNN
F 1 "100nF" H 6142 1505 50  0000 L CNN
F 2 "Capacitor_SMD:C_0201_0603Metric" H 6050 1550 50  0001 C CNN
F 3 "~" H 6050 1550 50  0001 C CNN
	1    6050 1550
	1    0    0    -1  
$EndComp
Wire Wire Line
	3350 1400 3350 1450
$Comp
L power:GND #PWR022
U 1 1 6144404B
P 3350 1700
F 0 "#PWR022" H 3350 1450 50  0001 C CNN
F 1 "GND" H 3355 1527 50  0000 C CNN
F 2 "" H 3350 1700 50  0001 C CNN
F 3 "" H 3350 1700 50  0001 C CNN
	1    3350 1700
	1    0    0    -1  
$EndComp
Wire Wire Line
	3350 1650 3350 1700
$Comp
L Device:C_Small C11
U 1 1 61444052
P 3350 1550
F 0 "C11" H 3442 1596 50  0000 L CNN
F 1 "100nF" H 3442 1505 50  0000 L CNN
F 2 "Capacitor_SMD:C_0201_0603Metric" H 3350 1550 50  0001 C CNN
F 3 "~" H 3350 1550 50  0001 C CNN
	1    3350 1550
	1    0    0    -1  
$EndComp
$Comp
L power:+1V35 #PWR021
U 1 1 614449BF
P 3350 1400
F 0 "#PWR021" H 3350 1250 50  0001 C CNN
F 1 "+1V35" V 3365 1528 50  0000 L CNN
F 2 "" H 3350 1400 50  0001 C CNN
F 3 "" H 3350 1400 50  0001 C CNN
	1    3350 1400
	1    0    0    -1  
$EndComp
Wire Wire Line
	3800 1400 3800 1450
$Comp
L power:GND #PWR026
U 1 1 61447B02
P 3800 1700
F 0 "#PWR026" H 3800 1450 50  0001 C CNN
F 1 "GND" H 3805 1527 50  0000 C CNN
F 2 "" H 3800 1700 50  0001 C CNN
F 3 "" H 3800 1700 50  0001 C CNN
	1    3800 1700
	1    0    0    -1  
$EndComp
Wire Wire Line
	3800 1650 3800 1700
$Comp
L Device:C_Small C13
U 1 1 61447B09
P 3800 1550
F 0 "C13" H 3892 1596 50  0000 L CNN
F 1 "100nF" H 3892 1505 50  0000 L CNN
F 2 "Capacitor_SMD:C_0201_0603Metric" H 3800 1550 50  0001 C CNN
F 3 "~" H 3800 1550 50  0001 C CNN
	1    3800 1550
	1    0    0    -1  
$EndComp
$Comp
L power:+1V35 #PWR025
U 1 1 61447B0F
P 3800 1400
F 0 "#PWR025" H 3800 1250 50  0001 C CNN
F 1 "+1V35" V 3815 1528 50  0000 L CNN
F 2 "" H 3800 1400 50  0001 C CNN
F 3 "" H 3800 1400 50  0001 C CNN
	1    3800 1400
	1    0    0    -1  
$EndComp
Wire Wire Line
	4250 1400 4250 1450
$Comp
L power:GND #PWR031
U 1 1 6144856A
P 4250 1700
F 0 "#PWR031" H 4250 1450 50  0001 C CNN
F 1 "GND" H 4255 1527 50  0000 C CNN
F 2 "" H 4250 1700 50  0001 C CNN
F 3 "" H 4250 1700 50  0001 C CNN
	1    4250 1700
	1    0    0    -1  
$EndComp
Wire Wire Line
	4250 1650 4250 1700
$Comp
L Device:C_Small C15
U 1 1 61448571
P 4250 1550
F 0 "C15" H 4342 1596 50  0000 L CNN
F 1 "100nF" H 4342 1505 50  0000 L CNN
F 2 "Capacitor_SMD:C_0201_0603Metric" H 4250 1550 50  0001 C CNN
F 3 "~" H 4250 1550 50  0001 C CNN
	1    4250 1550
	1    0    0    -1  
$EndComp
$Comp
L power:+1V35 #PWR030
U 1 1 61448577
P 4250 1400
F 0 "#PWR030" H 4250 1250 50  0001 C CNN
F 1 "+1V35" V 4265 1528 50  0000 L CNN
F 2 "" H 4250 1400 50  0001 C CNN
F 3 "" H 4250 1400 50  0001 C CNN
	1    4250 1400
	1    0    0    -1  
$EndComp
Wire Wire Line
	4700 1400 4700 1450
$Comp
L power:GND #PWR035
U 1 1 61448ED3
P 4700 1700
F 0 "#PWR035" H 4700 1450 50  0001 C CNN
F 1 "GND" H 4705 1527 50  0000 C CNN
F 2 "" H 4700 1700 50  0001 C CNN
F 3 "" H 4700 1700 50  0001 C CNN
	1    4700 1700
	1    0    0    -1  
$EndComp
Wire Wire Line
	4700 1650 4700 1700
$Comp
L Device:C_Small C17
U 1 1 61448EDA
P 4700 1550
F 0 "C17" H 4792 1596 50  0000 L CNN
F 1 "100nF" H 4792 1505 50  0000 L CNN
F 2 "Capacitor_SMD:C_0201_0603Metric" H 4700 1550 50  0001 C CNN
F 3 "~" H 4700 1550 50  0001 C CNN
	1    4700 1550
	1    0    0    -1  
$EndComp
$Comp
L power:+1V35 #PWR034
U 1 1 61448EE0
P 4700 1400
F 0 "#PWR034" H 4700 1250 50  0001 C CNN
F 1 "+1V35" V 4715 1528 50  0000 L CNN
F 2 "" H 4700 1400 50  0001 C CNN
F 3 "" H 4700 1400 50  0001 C CNN
	1    4700 1400
	1    0    0    -1  
$EndComp
Wire Wire Line
	5150 1400 5150 1450
$Comp
L power:GND #PWR040
U 1 1 614499E3
P 5150 1700
F 0 "#PWR040" H 5150 1450 50  0001 C CNN
F 1 "GND" H 5155 1527 50  0000 C CNN
F 2 "" H 5150 1700 50  0001 C CNN
F 3 "" H 5150 1700 50  0001 C CNN
	1    5150 1700
	1    0    0    -1  
$EndComp
Wire Wire Line
	5150 1650 5150 1700
$Comp
L Device:C_Small C19
U 1 1 614499EA
P 5150 1550
F 0 "C19" H 5242 1596 50  0000 L CNN
F 1 "100nF" H 5242 1505 50  0000 L CNN
F 2 "Capacitor_SMD:C_0201_0603Metric" H 5150 1550 50  0001 C CNN
F 3 "~" H 5150 1550 50  0001 C CNN
	1    5150 1550
	1    0    0    -1  
$EndComp
$Comp
L power:+1V35 #PWR039
U 1 1 614499F0
P 5150 1400
F 0 "#PWR039" H 5150 1250 50  0001 C CNN
F 1 "+1V35" V 5165 1528 50  0000 L CNN
F 2 "" H 5150 1400 50  0001 C CNN
F 3 "" H 5150 1400 50  0001 C CNN
	1    5150 1400
	1    0    0    -1  
$EndComp
Wire Wire Line
	1100 1400 1100 1450
$Comp
L power:GND #PWR02
U 1 1 61453159
P 1100 1700
F 0 "#PWR02" H 1100 1450 50  0001 C CNN
F 1 "GND" H 1105 1527 50  0000 C CNN
F 2 "" H 1100 1700 50  0001 C CNN
F 3 "" H 1100 1700 50  0001 C CNN
	1    1100 1700
	1    0    0    -1  
$EndComp
Wire Wire Line
	1100 1650 1100 1700
$Comp
L Device:C_Small C1
U 1 1 61453160
P 1100 1550
F 0 "C1" H 1192 1596 50  0000 L CNN
F 1 "100nF" H 1192 1505 50  0000 L CNN
F 2 "Capacitor_SMD:C_0201_0603Metric" H 1100 1550 50  0001 C CNN
F 3 "~" H 1100 1550 50  0001 C CNN
	1    1100 1550
	1    0    0    -1  
$EndComp
$Comp
L power:+1V35 #PWR01
U 1 1 61453166
P 1100 1400
F 0 "#PWR01" H 1100 1250 50  0001 C CNN
F 1 "+1V35" V 1115 1528 50  0000 L CNN
F 2 "" H 1100 1400 50  0001 C CNN
F 3 "" H 1100 1400 50  0001 C CNN
	1    1100 1400
	1    0    0    -1  
$EndComp
Wire Wire Line
	1550 1400 1550 1450
$Comp
L power:GND #PWR06
U 1 1 6145316D
P 1550 1700
F 0 "#PWR06" H 1550 1450 50  0001 C CNN
F 1 "GND" H 1555 1527 50  0000 C CNN
F 2 "" H 1550 1700 50  0001 C CNN
F 3 "" H 1550 1700 50  0001 C CNN
	1    1550 1700
	1    0    0    -1  
$EndComp
Wire Wire Line
	1550 1650 1550 1700
$Comp
L Device:C_Small C3
U 1 1 61453174
P 1550 1550
F 0 "C3" H 1642 1596 50  0000 L CNN
F 1 "100nF" H 1642 1505 50  0000 L CNN
F 2 "Capacitor_SMD:C_0201_0603Metric" H 1550 1550 50  0001 C CNN
F 3 "~" H 1550 1550 50  0001 C CNN
	1    1550 1550
	1    0    0    -1  
$EndComp
$Comp
L power:+1V35 #PWR05
U 1 1 6145317A
P 1550 1400
F 0 "#PWR05" H 1550 1250 50  0001 C CNN
F 1 "+1V35" V 1565 1528 50  0000 L CNN
F 2 "" H 1550 1400 50  0001 C CNN
F 3 "" H 1550 1400 50  0001 C CNN
	1    1550 1400
	1    0    0    -1  
$EndComp
Wire Wire Line
	2000 1400 2000 1450
$Comp
L power:GND #PWR010
U 1 1 61453181
P 2000 1700
F 0 "#PWR010" H 2000 1450 50  0001 C CNN
F 1 "GND" H 2005 1527 50  0000 C CNN
F 2 "" H 2000 1700 50  0001 C CNN
F 3 "" H 2000 1700 50  0001 C CNN
	1    2000 1700
	1    0    0    -1  
$EndComp
Wire Wire Line
	2000 1650 2000 1700
$Comp
L Device:C_Small C5
U 1 1 61453188
P 2000 1550
F 0 "C5" H 2092 1596 50  0000 L CNN
F 1 "100nF" H 2092 1505 50  0000 L CNN
F 2 "Capacitor_SMD:C_0201_0603Metric" H 2000 1550 50  0001 C CNN
F 3 "~" H 2000 1550 50  0001 C CNN
	1    2000 1550
	1    0    0    -1  
$EndComp
$Comp
L power:+1V35 #PWR09
U 1 1 6145318E
P 2000 1400
F 0 "#PWR09" H 2000 1250 50  0001 C CNN
F 1 "+1V35" V 2015 1528 50  0000 L CNN
F 2 "" H 2000 1400 50  0001 C CNN
F 3 "" H 2000 1400 50  0001 C CNN
	1    2000 1400
	1    0    0    -1  
$EndComp
Wire Wire Line
	2450 1400 2450 1450
$Comp
L power:GND #PWR014
U 1 1 61453195
P 2450 1700
F 0 "#PWR014" H 2450 1450 50  0001 C CNN
F 1 "GND" H 2455 1527 50  0000 C CNN
F 2 "" H 2450 1700 50  0001 C CNN
F 3 "" H 2450 1700 50  0001 C CNN
	1    2450 1700
	1    0    0    -1  
$EndComp
Wire Wire Line
	2450 1650 2450 1700
$Comp
L Device:C_Small C7
U 1 1 6145319C
P 2450 1550
F 0 "C7" H 2542 1596 50  0000 L CNN
F 1 "100nF" H 2542 1505 50  0000 L CNN
F 2 "Capacitor_SMD:C_0201_0603Metric" H 2450 1550 50  0001 C CNN
F 3 "~" H 2450 1550 50  0001 C CNN
	1    2450 1550
	1    0    0    -1  
$EndComp
$Comp
L power:+1V35 #PWR013
U 1 1 614531A2
P 2450 1400
F 0 "#PWR013" H 2450 1250 50  0001 C CNN
F 1 "+1V35" V 2465 1528 50  0000 L CNN
F 2 "" H 2450 1400 50  0001 C CNN
F 3 "" H 2450 1400 50  0001 C CNN
	1    2450 1400
	1    0    0    -1  
$EndComp
Wire Wire Line
	2900 1400 2900 1450
$Comp
L power:GND #PWR018
U 1 1 614531A9
P 2900 1700
F 0 "#PWR018" H 2900 1450 50  0001 C CNN
F 1 "GND" H 2905 1527 50  0000 C CNN
F 2 "" H 2900 1700 50  0001 C CNN
F 3 "" H 2900 1700 50  0001 C CNN
	1    2900 1700
	1    0    0    -1  
$EndComp
Wire Wire Line
	2900 1650 2900 1700
$Comp
L Device:C_Small C9
U 1 1 614531B0
P 2900 1550
F 0 "C9" H 2992 1596 50  0000 L CNN
F 1 "100nF" H 2992 1505 50  0000 L CNN
F 2 "Capacitor_SMD:C_0201_0603Metric" H 2900 1550 50  0001 C CNN
F 3 "~" H 2900 1550 50  0001 C CNN
	1    2900 1550
	1    0    0    -1  
$EndComp
$Comp
L power:+1V35 #PWR017
U 1 1 614531B6
P 2900 1400
F 0 "#PWR017" H 2900 1250 50  0001 C CNN
F 1 "+1V35" V 2915 1528 50  0000 L CNN
F 2 "" H 2900 1400 50  0001 C CNN
F 3 "" H 2900 1400 50  0001 C CNN
	1    2900 1400
	1    0    0    -1  
$EndComp
Wire Wire Line
	3350 2400 3350 2450
$Comp
L power:GND #PWR024
U 1 1 6145D6B3
P 3350 2700
F 0 "#PWR024" H 3350 2450 50  0001 C CNN
F 1 "GND" H 3355 2527 50  0000 C CNN
F 2 "" H 3350 2700 50  0001 C CNN
F 3 "" H 3350 2700 50  0001 C CNN
	1    3350 2700
	1    0    0    -1  
$EndComp
Wire Wire Line
	3350 2650 3350 2700
$Comp
L Device:C_Small C12
U 1 1 6145D6BA
P 3350 2550
F 0 "C12" H 3442 2596 50  0000 L CNN
F 1 "100nF" H 3442 2505 50  0000 L CNN
F 2 "Capacitor_SMD:C_0201_0603Metric" H 3350 2550 50  0001 C CNN
F 3 "~" H 3350 2550 50  0001 C CNN
	1    3350 2550
	1    0    0    -1  
$EndComp
$Comp
L power:+1V35 #PWR023
U 1 1 6145D6C0
P 3350 2400
F 0 "#PWR023" H 3350 2250 50  0001 C CNN
F 1 "+1V35" V 3365 2528 50  0000 L CNN
F 2 "" H 3350 2400 50  0001 C CNN
F 3 "" H 3350 2400 50  0001 C CNN
	1    3350 2400
	1    0    0    -1  
$EndComp
Wire Wire Line
	3800 2400 3800 2450
$Comp
L power:GND #PWR028
U 1 1 6145D6C7
P 3800 2700
F 0 "#PWR028" H 3800 2450 50  0001 C CNN
F 1 "GND" H 3805 2527 50  0000 C CNN
F 2 "" H 3800 2700 50  0001 C CNN
F 3 "" H 3800 2700 50  0001 C CNN
	1    3800 2700
	1    0    0    -1  
$EndComp
Wire Wire Line
	3800 2650 3800 2700
$Comp
L Device:C_Small C14
U 1 1 6145D6CE
P 3800 2550
F 0 "C14" H 3892 2596 50  0000 L CNN
F 1 "100nF" H 3892 2505 50  0000 L CNN
F 2 "Capacitor_SMD:C_0201_0603Metric" H 3800 2550 50  0001 C CNN
F 3 "~" H 3800 2550 50  0001 C CNN
	1    3800 2550
	1    0    0    -1  
$EndComp
$Comp
L power:+1V35 #PWR027
U 1 1 6145D6D4
P 3800 2400
F 0 "#PWR027" H 3800 2250 50  0001 C CNN
F 1 "+1V35" V 3815 2528 50  0000 L CNN
F 2 "" H 3800 2400 50  0001 C CNN
F 3 "" H 3800 2400 50  0001 C CNN
	1    3800 2400
	1    0    0    -1  
$EndComp
Wire Wire Line
	4250 2400 4250 2450
$Comp
L power:GND #PWR033
U 1 1 6145D6DB
P 4250 2700
F 0 "#PWR033" H 4250 2450 50  0001 C CNN
F 1 "GND" H 4255 2527 50  0000 C CNN
F 2 "" H 4250 2700 50  0001 C CNN
F 3 "" H 4250 2700 50  0001 C CNN
	1    4250 2700
	1    0    0    -1  
$EndComp
Wire Wire Line
	4250 2650 4250 2700
$Comp
L Device:C_Small C16
U 1 1 6145D6E2
P 4250 2550
F 0 "C16" H 4342 2596 50  0000 L CNN
F 1 "100nF" H 4342 2505 50  0000 L CNN
F 2 "Capacitor_SMD:C_0201_0603Metric" H 4250 2550 50  0001 C CNN
F 3 "~" H 4250 2550 50  0001 C CNN
	1    4250 2550
	1    0    0    -1  
$EndComp
$Comp
L power:+1V35 #PWR032
U 1 1 6145D6E8
P 4250 2400
F 0 "#PWR032" H 4250 2250 50  0001 C CNN
F 1 "+1V35" V 4265 2528 50  0000 L CNN
F 2 "" H 4250 2400 50  0001 C CNN
F 3 "" H 4250 2400 50  0001 C CNN
	1    4250 2400
	1    0    0    -1  
$EndComp
Wire Wire Line
	4700 2400 4700 2450
$Comp
L power:GND #PWR037
U 1 1 6145D6EF
P 4700 2700
F 0 "#PWR037" H 4700 2450 50  0001 C CNN
F 1 "GND" H 4705 2527 50  0000 C CNN
F 2 "" H 4700 2700 50  0001 C CNN
F 3 "" H 4700 2700 50  0001 C CNN
	1    4700 2700
	1    0    0    -1  
$EndComp
Wire Wire Line
	4700 2650 4700 2700
$Comp
L Device:C_Small C18
U 1 1 6145D6F6
P 4700 2550
F 0 "C18" H 4792 2596 50  0000 L CNN
F 1 "100nF" H 4792 2505 50  0000 L CNN
F 2 "Capacitor_SMD:C_0201_0603Metric" H 4700 2550 50  0001 C CNN
F 3 "~" H 4700 2550 50  0001 C CNN
	1    4700 2550
	1    0    0    -1  
$EndComp
$Comp
L power:+1V35 #PWR036
U 1 1 6145D6FC
P 4700 2400
F 0 "#PWR036" H 4700 2250 50  0001 C CNN
F 1 "+1V35" V 4715 2528 50  0000 L CNN
F 2 "" H 4700 2400 50  0001 C CNN
F 3 "" H 4700 2400 50  0001 C CNN
	1    4700 2400
	1    0    0    -1  
$EndComp
Wire Wire Line
	1100 2400 1100 2450
$Comp
L power:GND #PWR04
U 1 1 6145D717
P 1100 2700
F 0 "#PWR04" H 1100 2450 50  0001 C CNN
F 1 "GND" H 1105 2527 50  0000 C CNN
F 2 "" H 1100 2700 50  0001 C CNN
F 3 "" H 1100 2700 50  0001 C CNN
	1    1100 2700
	1    0    0    -1  
$EndComp
Wire Wire Line
	1100 2650 1100 2700
$Comp
L Device:C_Small C2
U 1 1 6145D71E
P 1100 2550
F 0 "C2" H 1192 2596 50  0000 L CNN
F 1 "100nF" H 1192 2505 50  0000 L CNN
F 2 "Capacitor_SMD:C_0201_0603Metric" H 1100 2550 50  0001 C CNN
F 3 "~" H 1100 2550 50  0001 C CNN
	1    1100 2550
	1    0    0    -1  
$EndComp
$Comp
L power:+1V35 #PWR03
U 1 1 6145D724
P 1100 2400
F 0 "#PWR03" H 1100 2250 50  0001 C CNN
F 1 "+1V35" V 1115 2528 50  0000 L CNN
F 2 "" H 1100 2400 50  0001 C CNN
F 3 "" H 1100 2400 50  0001 C CNN
	1    1100 2400
	1    0    0    -1  
$EndComp
Wire Wire Line
	1550 2400 1550 2450
$Comp
L power:GND #PWR08
U 1 1 6145D72B
P 1550 2700
F 0 "#PWR08" H 1550 2450 50  0001 C CNN
F 1 "GND" H 1555 2527 50  0000 C CNN
F 2 "" H 1550 2700 50  0001 C CNN
F 3 "" H 1550 2700 50  0001 C CNN
	1    1550 2700
	1    0    0    -1  
$EndComp
Wire Wire Line
	1550 2650 1550 2700
$Comp
L Device:C_Small C4
U 1 1 6145D732
P 1550 2550
F 0 "C4" H 1642 2596 50  0000 L CNN
F 1 "100nF" H 1642 2505 50  0000 L CNN
F 2 "Capacitor_SMD:C_0201_0603Metric" H 1550 2550 50  0001 C CNN
F 3 "~" H 1550 2550 50  0001 C CNN
	1    1550 2550
	1    0    0    -1  
$EndComp
$Comp
L power:+1V35 #PWR07
U 1 1 6145D738
P 1550 2400
F 0 "#PWR07" H 1550 2250 50  0001 C CNN
F 1 "+1V35" V 1565 2528 50  0000 L CNN
F 2 "" H 1550 2400 50  0001 C CNN
F 3 "" H 1550 2400 50  0001 C CNN
	1    1550 2400
	1    0    0    -1  
$EndComp
Wire Wire Line
	2000 2400 2000 2450
$Comp
L power:GND #PWR012
U 1 1 6145D73F
P 2000 2700
F 0 "#PWR012" H 2000 2450 50  0001 C CNN
F 1 "GND" H 2005 2527 50  0000 C CNN
F 2 "" H 2000 2700 50  0001 C CNN
F 3 "" H 2000 2700 50  0001 C CNN
	1    2000 2700
	1    0    0    -1  
$EndComp
Wire Wire Line
	2000 2650 2000 2700
$Comp
L Device:C_Small C6
U 1 1 6145D746
P 2000 2550
F 0 "C6" H 2092 2596 50  0000 L CNN
F 1 "100nF" H 2092 2505 50  0000 L CNN
F 2 "Capacitor_SMD:C_0201_0603Metric" H 2000 2550 50  0001 C CNN
F 3 "~" H 2000 2550 50  0001 C CNN
	1    2000 2550
	1    0    0    -1  
$EndComp
$Comp
L power:+1V35 #PWR011
U 1 1 6145D74C
P 2000 2400
F 0 "#PWR011" H 2000 2250 50  0001 C CNN
F 1 "+1V35" V 2015 2528 50  0000 L CNN
F 2 "" H 2000 2400 50  0001 C CNN
F 3 "" H 2000 2400 50  0001 C CNN
	1    2000 2400
	1    0    0    -1  
$EndComp
Wire Wire Line
	2450 2400 2450 2450
$Comp
L power:GND #PWR016
U 1 1 6145D753
P 2450 2700
F 0 "#PWR016" H 2450 2450 50  0001 C CNN
F 1 "GND" H 2455 2527 50  0000 C CNN
F 2 "" H 2450 2700 50  0001 C CNN
F 3 "" H 2450 2700 50  0001 C CNN
	1    2450 2700
	1    0    0    -1  
$EndComp
Wire Wire Line
	2450 2650 2450 2700
$Comp
L Device:C_Small C8
U 1 1 6145D75A
P 2450 2550
F 0 "C8" H 2542 2596 50  0000 L CNN
F 1 "100nF" H 2542 2505 50  0000 L CNN
F 2 "Capacitor_SMD:C_0201_0603Metric" H 2450 2550 50  0001 C CNN
F 3 "~" H 2450 2550 50  0001 C CNN
	1    2450 2550
	1    0    0    -1  
$EndComp
$Comp
L power:+1V35 #PWR015
U 1 1 6145D760
P 2450 2400
F 0 "#PWR015" H 2450 2250 50  0001 C CNN
F 1 "+1V35" V 2465 2528 50  0000 L CNN
F 2 "" H 2450 2400 50  0001 C CNN
F 3 "" H 2450 2400 50  0001 C CNN
	1    2450 2400
	1    0    0    -1  
$EndComp
Wire Wire Line
	2900 2400 2900 2450
$Comp
L power:GND #PWR020
U 1 1 6145D767
P 2900 2700
F 0 "#PWR020" H 2900 2450 50  0001 C CNN
F 1 "GND" H 2905 2527 50  0000 C CNN
F 2 "" H 2900 2700 50  0001 C CNN
F 3 "" H 2900 2700 50  0001 C CNN
	1    2900 2700
	1    0    0    -1  
$EndComp
Wire Wire Line
	2900 2650 2900 2700
$Comp
L Device:C_Small C10
U 1 1 6145D76E
P 2900 2550
F 0 "C10" H 2992 2596 50  0000 L CNN
F 1 "100nF" H 2992 2505 50  0000 L CNN
F 2 "Capacitor_SMD:C_0201_0603Metric" H 2900 2550 50  0001 C CNN
F 3 "~" H 2900 2550 50  0001 C CNN
	1    2900 2550
	1    0    0    -1  
$EndComp
$Comp
L power:+1V35 #PWR019
U 1 1 6145D774
P 2900 2400
F 0 "#PWR019" H 2900 2250 50  0001 C CNN
F 1 "+1V35" V 2915 2528 50  0000 L CNN
F 2 "" H 2900 2400 50  0001 C CNN
F 3 "" H 2900 2400 50  0001 C CNN
	1    2900 2400
	1    0    0    -1  
$EndComp
Text Label 1600 7100 2    50   ~ 0
DRAM_DQ15
Text Label 1600 7000 2    50   ~ 0
DRAM_DQ14
Text Label 1600 6900 2    50   ~ 0
DRAM_DQ13
Text Label 1600 6800 2    50   ~ 0
DRAM_DQ12
Text Label 1600 6700 2    50   ~ 0
DRAM_DQ11
Text Label 1600 6600 2    50   ~ 0
DRAM_DQ10
Text Label 1600 6500 2    50   ~ 0
DRAM_DQ9
Text Label 1600 6400 2    50   ~ 0
DRAM_DQ8
Text Label 1600 6300 2    50   ~ 0
DRAM_DQ7
Text Label 1600 6200 2    50   ~ 0
DRAM_DQ6
Text Label 1600 6100 2    50   ~ 0
DRAM_DQ5
Text Label 1600 6000 2    50   ~ 0
DRAM_DQ4
Text Label 1600 5900 2    50   ~ 0
DRAM_DQ3
Text Label 1600 5800 2    50   ~ 0
DRAM_DQ2
Text Label 1600 5700 2    50   ~ 0
DRAM_DQ1
Text Label 1600 5600 2    50   ~ 0
DRAM_DQ0
Wire Wire Line
	4750 4500 4750 4550
$Comp
L power:GND #PWR038
U 1 1 610B406B
P 4750 4550
F 0 "#PWR038" H 4750 4300 50  0001 C CNN
F 1 "GND" V 4755 4422 50  0000 R CNN
F 2 "" H 4750 4550 50  0001 C CNN
F 3 "" H 4750 4550 50  0001 C CNN
	1    4750 4550
	1    0    0    -1  
$EndComp
$Comp
L Device:R_Small R2
U 1 1 610B4065
P 4750 4400
F 0 "R2" H 4691 4446 50  0000 R CNN
F 1 "10k" H 4691 4355 50  0000 R CNN
F 2 "Resistor_SMD:R_0201_0603Metric" H 4750 4400 50  0001 C CNN
F 3 "~" H 4750 4400 50  0001 C CNN
F 4 "5%" V 4750 4400 50  0001 C CNN "Tolerance"
	1    4750 4400
	1    0    0    -1  
$EndComp
Text Label 3600 4400 0    50   ~ 0
~DRAM_RST
Text Label 4750 4300 0    50   ~ 0
~DRAM_RST
Text Label 8500 3550 0    50   ~ 0
DRAM_DQ0
Text Label 8500 3250 0    50   ~ 0
DRAM_DQ1
Text Label 8500 3150 0    50   ~ 0
DRAM_DQ2
Text Label 8500 3850 0    50   ~ 0
DRAM_DQ3
Text Label 8500 3450 0    50   ~ 0
DRAM_DQ5
Text Label 8500 3750 0    50   ~ 0
DRAM_DQ6
Text Label 8500 2450 0    50   ~ 0
DRAM_DQ9
Text Label 8500 2650 0    50   ~ 0
DRAM_DQ11
Text Label 8500 2850 0    50   ~ 0
DRAM_DQ12
Text Label 8500 3050 0    50   ~ 0
DRAM_DQ13
$Comp
L imx6_breakout:DDR3(L)_96BGA U?
U 1 1 611F3C0E
P 7800 3850
AR Path="/611F3C0E" Ref="U?"  Part="1" 
AR Path="/611E0559/611F3C0E" Ref="U2"  Part="1" 
AR Path="/619A0AC1/611F3C0E" Ref="U1"  Part="1" 
F 0 "U1" H 7250 5500 50  0000 C CNN
F 1 "AS4C256M16D3C " V 7800 3850 50  0000 C CNN
F 2 "imx6_breakout:BGA96C80P6X16_1350X750X110" H 7750 5650 50  0001 C CNN
F 3 "https://www.alliancememory.com/wp-content/uploads/pdf/ddr3/AllianceMemory_4G_DDR3_AS4C256M16D3C_March2020_Rev1.0.pdf" H 7750 6550 50  0001 C CNN
	1    7800 3850
	1    0    0    -1  
$EndComp
$Comp
L MCIMX6Y0CVM05AB:MCIMX6Y0CVM05AB U?
U 2 1 61204BA0
P 2600 5400
AR Path="/61204BA0" Ref="U?"  Part="2" 
AR Path="/611E0559/61204BA0" Ref="U1"  Part="2" 
AR Path="/619A0AC1/61204BA0" Ref="U2"  Part="2" 
F 0 "U2" H 1800 7050 50  0000 C CNN
F 1 "MCIMX6Y0CVM05AB" V 2600 5400 50  0000 C CNN
F 2 "imx6_breakout:BGA-289_17x17_14.0x14.0mm" H 2600 5400 50  0001 L BNN
F 3 "" H 2600 5400 50  0001 L BNN
F 4 "IPC7351B" H 2600 5400 50  0001 L BNN "STANDARD"
F 5 "NXP" H 2600 5400 50  0001 L BNN "MANUFACTURER"
F 6 "1.2" H 2600 5400 50  0001 L BNN "PARTREV"
	2    2600 5400
	1    0    0    -1  
$EndComp
Text Label 7100 3150 2    50   ~ 0
DRAM_A8
Text Label 7100 3250 2    50   ~ 0
DRAM_A9
Text Label 7100 3350 2    50   ~ 0
DRAM_A10
Text Label 7100 3450 2    50   ~ 0
DRAM_A11
Text Label 7100 3550 2    50   ~ 0
DRAM_A12
Text Label 7100 3650 2    50   ~ 0
DRAM_A13
Text Label 7100 3750 2    50   ~ 0
DRAM_A14
Text Label 7100 3850 2    50   ~ 0
DRAM_A15
Text Label 7100 2350 2    50   ~ 0
DRAM_A0
Text Label 7100 2450 2    50   ~ 0
DRAM_A1
Text Label 7100 2550 2    50   ~ 0
DRAM_A2
Text Label 7100 2650 2    50   ~ 0
DRAM_A3
Text Label 7100 2750 2    50   ~ 0
DRAM_A4
Text Label 7100 2850 2    50   ~ 0
DRAM_A5
Text Label 7100 2950 2    50   ~ 0
DRAM_A6
Text Label 7100 3050 2    50   ~ 0
DRAM_A7
Text Label 8500 3350 0    50   ~ 0
DRAM_DQ7
Text Label 8500 3650 0    50   ~ 0
DRAM_DQ4
Text Label 8500 2550 0    50   ~ 0
DRAM_DQ14
Text Label 8500 2950 0    50   ~ 0
DRAM_DQ8
Text Label 8500 2350 0    50   ~ 0
DRAM_DQ15
Text Label 8500 2750 0    50   ~ 0
DRAM_DQ10
$EndSCHEMATC
