EESchema Schematic File Version 4
EELAYER 30 0
EELAYER END
$Descr A3 16535 11693
encoding utf-8
Sheet 1 3
Title ""
Date ""
Rev ""
Comp ""
Comment1 ""
Comment2 ""
Comment3 ""
Comment4 ""
$EndDescr
$Comp
L MCIMX6Y0CVM05AB:MCIMX6Y0CVM05AB U2
U 1 1 618ADAF0
P 1700 1750
F 0 "U2" H 1700 2917 50  0000 C CNN
F 1 "MCIMX6Y0CVM05AB" H 1700 2826 50  0000 C CNN
F 2 "imx6_breakout:BGA-289_17x17_14.0x14.0mm" H 1700 1750 50  0001 L BNN
F 3 "" H 1700 1750 50  0001 L BNN
F 4 "IPC7351B" H 1700 1750 50  0001 L BNN "STANDARD"
F 5 "NXP" H 1700 1750 50  0001 L BNN "MANUFACTURER"
F 6 "1.2" H 1700 1750 50  0001 L BNN "PARTREV"
	1    1700 1750
	1    0    0    -1  
$EndComp
$Comp
L MCIMX6Y0CVM05AB:MCIMX6Y0CVM05AB U2
U 3 1 618F6CBC
P 4600 2600
F 0 "U2" H 4600 4067 50  0000 C CNN
F 1 "MCIMX6Y0CVM05AB" H 4600 3976 50  0000 C CNN
F 2 "imx6_breakout:BGA-289_17x17_14.0x14.0mm" H 4600 2600 50  0001 L BNN
F 3 "" H 4600 2600 50  0001 L BNN
F 4 "IPC7351B" H 4600 2600 50  0001 L BNN "STANDARD"
F 5 "NXP" H 4600 2600 50  0001 L BNN "MANUFACTURER"
F 6 "1.2" H 4600 2600 50  0001 L BNN "PARTREV"
	3    4600 2600
	1    0    0    -1  
$EndComp
$Comp
L MCIMX6Y0CVM05AB:MCIMX6Y0CVM05AB U2
U 5 1 61900F81
P 3650 5950
F 0 "U2" H 3700 7317 50  0000 C CNN
F 1 "MCIMX6Y0CVM05AB" H 3700 7226 50  0000 C CNN
F 2 "imx6_breakout:BGA-289_17x17_14.0x14.0mm" H 3650 5950 50  0001 L BNN
F 3 "" H 3650 5950 50  0001 L BNN
F 4 "IPC7351B" H 3650 5950 50  0001 L BNN "STANDARD"
F 5 "NXP" H 3650 5950 50  0001 L BNN "MANUFACTURER"
F 6 "1.2" H 3650 5950 50  0001 L BNN "PARTREV"
	5    3650 5950
	1    0    0    -1  
$EndComp
$Comp
L MCIMX6Y0CVM05AB:MCIMX6Y0CVM05AB U2
U 6 1 6190D65B
P 8350 6000
F 0 "U2" H 8350 7267 50  0000 C CNN
F 1 "MCIMX6Y0CVM05AB" H 8350 7176 50  0000 C CNN
F 2 "imx6_breakout:BGA-289_17x17_14.0x14.0mm" H 8350 6000 50  0001 L BNN
F 3 "" H 8350 6000 50  0001 L BNN
F 4 "IPC7351B" H 8350 6000 50  0001 L BNN "STANDARD"
F 5 "NXP" H 8350 6000 50  0001 L BNN "MANUFACTURER"
F 6 "1.2" H 8350 6000 50  0001 L BNN "PARTREV"
	6    8350 6000
	1    0    0    -1  
$EndComp
$Sheet
S 13850 5450 1300 1600
U 619A0AC1
F0 "RAM" 50
F1 "DRAM.sch" 50
$EndSheet
$Comp
L MicroMod-Teensy-eagle-import:MICROMOD-2222 J1
U 1 1 619FB6C8
P 14200 2900
AR Path="/619FB6C8" Ref="J1"  Part="1" 
AR Path="/619A0AC1/619FB6C8" Ref="J?"  Part="1" 
F 0 "J1" H 14200 5186 59  0000 C CNN
F 1 "MICROMOD-2222" H 14200 5081 59  0000 C CNN
F 2 "imx6_breakout:M.2-CARD-E-22" H 14200 2900 50  0001 C CNN
F 3 "" H 14200 2900 50  0001 C CNN
	1    14200 2900
	1    0    0    -1  
$EndComp
$Comp
L power:GND #PWR0101
U 1 1 61B617F4
P 13250 4650
F 0 "#PWR0101" H 13250 4400 50  0001 C CNN
F 1 "GND" H 13255 4477 50  0000 C CNN
F 2 "" H 13250 4650 50  0001 C CNN
F 3 "" H 13250 4650 50  0001 C CNN
	1    13250 4650
	1    0    0    -1  
$EndComp
Wire Wire Line
	13250 4650 13250 4600
Wire Wire Line
	13250 4600 13300 4600
$Comp
L power:+3.3V #PWR0102
U 1 1 61B63613
P 13200 850
F 0 "#PWR0102" H 13200 700 50  0001 C CNN
F 1 "+3.3V" H 13215 1023 50  0000 C CNN
F 2 "" H 13200 850 50  0001 C CNN
F 3 "" H 13200 850 50  0001 C CNN
	1    13200 850 
	1    0    0    -1  
$EndComp
Wire Wire Line
	13250 850  13250 900 
Wire Wire Line
	13250 900  13300 900 
$Sheet
S 14450 7550 650  1200
U 61B76634
F0 "Power" 50
F1 "Power.sch" 50
$EndSheet
Text Label 4650 5150 0    50   ~ 0
SD1_CLK
Text Label 4650 5250 0    50   ~ 0
SD1_CMD
Text Label 4650 5350 0    50   ~ 0
SD1_DATA0
Text Label 4650 5450 0    50   ~ 0
SD1_DATA1
Text Label 4650 5550 0    50   ~ 0
SD1_DATA2
Text Label 4650 5650 0    50   ~ 0
SD1_DATA3
Text Label 15100 900  0    50   ~ 0
SD1_CLK
Text Label 15100 1000 0    50   ~ 0
SD1_CMD
Text Label 15100 1100 0    50   ~ 0
SD1_DATA0
Text Label 15100 1200 0    50   ~ 0
SD1_DATA1
Text Label 15100 1300 0    50   ~ 0
SD1_DATA2
Text Label 15100 1400 0    50   ~ 0
SD1_DATA3
$Comp
L power:+5V #PWR0117
U 1 1 61C76E8A
P 12900 1600
F 0 "#PWR0117" H 12900 1450 50  0001 C CNN
F 1 "+5V" V 12915 1728 50  0000 L CNN
F 2 "" H 12900 1600 50  0001 C CNN
F 3 "" H 12900 1600 50  0001 C CNN
	1    12900 1600
	0    -1   -1   0   
$EndComp
Wire Wire Line
	12950 1600 13300 1600
Text Label 13300 2100 2    50   ~ 0
USB2_D+
Text Label 13300 2000 2    50   ~ 0
USB2_D-
Text Label 9400 6100 0    50   ~ 0
USB2_D+
Text Label 9400 6200 0    50   ~ 0
USB2_D-
$Comp
L power:+5V #PWR0118
U 1 1 61C852EF
P 9400 5900
F 0 "#PWR0118" H 9400 5750 50  0001 C CNN
F 1 "+5V" V 9415 6028 50  0000 L CNN
F 2 "" H 9400 5900 50  0001 C CNN
F 3 "" H 9400 5900 50  0001 C CNN
	1    9400 5900
	0    1    1    0   
$EndComp
$Comp
L power:+5V #PWR0119
U 1 1 61C8A241
P 9400 6500
F 0 "#PWR0119" H 9400 6350 50  0001 C CNN
F 1 "+5V" V 9415 6628 50  0000 L CNN
F 2 "" H 9400 6500 50  0001 C CNN
F 3 "" H 9400 6500 50  0001 C CNN
	1    9400 6500
	0    1    1    0   
$EndComp
Wire Wire Line
	9400 6500 9350 6500
Wire Wire Line
	9350 5900 9400 5900
Text Label 13300 1700 2    50   ~ 0
USB1_D-
Text Label 13300 1800 2    50   ~ 0
USB1_D+
Text Label 9400 5700 0    50   ~ 0
USB1_D-
Text Label 9400 5600 0    50   ~ 0
USB1_D+
Text Label 7300 5200 2    50   ~ 0
UART1_HOST_RX
Text Label 7300 5300 2    50   ~ 0
UART1_HOST_TX
Text Label 15100 2800 0    50   ~ 0
UART1_HOST_RX
Text Label 15100 2900 0    50   ~ 0
UART1_HOST_TX
Text Label 7300 5100 2    50   ~ 0
UART1_HOST_RTS
Text Label 7300 5000 2    50   ~ 0
UART1_HOST_CTS
Text Label 15100 3000 0    50   ~ 0
UART1_HOST_RTS
Text Label 15100 3100 0    50   ~ 0
UART1_HOST_CTS
Text Label 15100 3200 0    50   ~ 0
UART2_HOST_RX
Text Label 15100 3300 0    50   ~ 0
UART2_HOST_TX
Text Label 7300 5700 2    50   ~ 0
UART2_HOST_RX
Text Label 7300 5800 2    50   ~ 0
UART2_HOST_TX
NoConn ~ 7350 5500
NoConn ~ 7350 5600
$Comp
L Device:Crystal_Small Y2
U 1 1 619FCE67
P 5300 5000
F 0 "Y2" V 5254 5088 50  0000 L CNN
F 1 "32.768kHz" V 5345 5088 50  0000 L CNN
F 2 "" H 5300 5000 50  0001 C CNN
F 3 "~" H 5300 5000 50  0001 C CNN
	1    5300 5000
	0    1    1    0   
$EndComp
$Comp
L Device:R_Small R6
U 1 1 619FE0EC
P 5200 5000
F 0 "R6" H 5142 5046 50  0000 R CNN
F 1 "1M" H 5142 4955 50  0000 R CNN
F 2 "Resistor_SMD:R_0201_0603Metric" H 5200 5000 50  0001 C CNN
F 3 "~" H 5200 5000 50  0001 C CNN
	1    5200 5000
	1    0    0    -1  
$EndComp
Wire Wire Line
	5200 5150 5000 5150
Wire Wire Line
	5000 5150 5000 5050
Wire Wire Line
	5000 5050 4650 5050
Wire Wire Line
	5200 5150 5200 5100
Wire Wire Line
	4650 4950 5000 4950
Wire Wire Line
	5000 4950 5000 4850
Wire Wire Line
	5000 4850 5200 4850
Wire Wire Line
	5200 4850 5200 4900
Wire Wire Line
	5200 4850 5300 4850
Wire Wire Line
	5300 4850 5300 4900
Connection ~ 5200 4850
Wire Wire Line
	5200 5150 5300 5150
Wire Wire Line
	5300 5150 5300 5100
Connection ~ 5200 5150
$Comp
L Device:C_Small C30
U 1 1 61A1C668
P 5500 4850
F 0 "C30" V 5271 4850 50  0000 C CNN
F 1 "C_Small" V 5362 4850 50  0000 C CNN
F 2 "Capacitor_SMD:C_0201_0603Metric" H 5500 4850 50  0001 C CNN
F 3 "~" H 5500 4850 50  0001 C CNN
	1    5500 4850
	0    1    1    0   
$EndComp
$Comp
L Device:C_Small C36
U 1 1 61A1CDD2
P 5500 5150
F 0 "C36" V 5637 5150 50  0000 C CNN
F 1 "C_Small" V 5728 5150 50  0000 C CNN
F 2 "Capacitor_SMD:C_0201_0603Metric" H 5500 5150 50  0001 C CNN
F 3 "~" H 5500 5150 50  0001 C CNN
	1    5500 5150
	0    1    1    0   
$EndComp
Wire Wire Line
	5400 4850 5300 4850
Connection ~ 5300 4850
Wire Wire Line
	5400 5150 5300 5150
Connection ~ 5300 5150
$Comp
L power:GND #PWR064
U 1 1 61A2055F
P 5650 5150
F 0 "#PWR064" H 5650 4900 50  0001 C CNN
F 1 "GND" V 5655 5022 50  0000 R CNN
F 2 "" H 5650 5150 50  0001 C CNN
F 3 "" H 5650 5150 50  0001 C CNN
	1    5650 5150
	0    -1   -1   0   
$EndComp
$Comp
L power:GND #PWR063
U 1 1 61A2123E
P 5650 4850
F 0 "#PWR063" H 5650 4600 50  0001 C CNN
F 1 "GND" V 5655 4722 50  0000 R CNN
F 2 "" H 5650 4850 50  0001 C CNN
F 3 "" H 5650 4850 50  0001 C CNN
	1    5650 4850
	0    -1   -1   0   
$EndComp
Wire Wire Line
	5650 4850 5600 4850
Wire Wire Line
	5600 5150 5650 5150
Text Label 4650 4850 0    50   ~ 0
~RESET
Text Label 13250 1000 2    50   ~ 0
~RESET
$EndSCHEMATC
