EESchema Schematic File Version 4
EELAYER 30 0
EELAYER END
$Descr A4 11693 8268
encoding utf-8
Sheet 3 3
Title ""
Date ""
Rev ""
Comp ""
Comment1 ""
Comment2 ""
Comment3 ""
Comment4 ""
$EndDescr
Wire Wire Line
	6450 5200 6450 5250
Wire Wire Line
	6450 5000 6450 4950
Wire Wire Line
	6450 5600 6450 5650
Wire Wire Line
	6450 5400 6450 5350
Wire Wire Line
	9900 4950 9950 4950
Wire Wire Line
	9950 5350 9900 5350
$Comp
L power:GND #PWR?
U 1 1 6108E4B5
P 9950 5350
AR Path="/6108E4B5" Ref="#PWR?"  Part="1" 
AR Path="/610494E8/6108E4B5" Ref="#PWR058"  Part="1" 
AR Path="/61B76634/6108E4B5" Ref="#PWR0115"  Part="1" 
F 0 "#PWR0115" H 9950 5100 50  0001 C CNN
F 1 "GND" V 9955 5222 50  0000 R CNN
F 2 "" H 9950 5350 50  0001 C CNN
F 3 "" H 9950 5350 50  0001 C CNN
	1    9950 5350
	0    -1   -1   0   
$EndComp
$Comp
L power:GND #PWR?
U 1 1 6108E4BB
P 9950 4950
AR Path="/6108E4BB" Ref="#PWR?"  Part="1" 
AR Path="/610494E8/6108E4BB" Ref="#PWR057"  Part="1" 
AR Path="/61B76634/6108E4BB" Ref="#PWR0114"  Part="1" 
F 0 "#PWR0114" H 9950 4700 50  0001 C CNN
F 1 "GND" V 9955 4822 50  0000 R CNN
F 2 "" H 9950 4950 50  0001 C CNN
F 3 "" H 9950 4950 50  0001 C CNN
	1    9950 4950
	0    -1   -1   0   
$EndComp
Wire Wire Line
	9650 4950 9700 4950
Wire Wire Line
	9650 5050 9650 4950
Connection ~ 9650 4950
Wire Wire Line
	9500 4950 9650 4950
Wire Wire Line
	9500 5050 9500 4950
Connection ~ 9500 4950
Wire Wire Line
	9150 4950 9500 4950
Wire Wire Line
	9150 5100 9150 4950
Wire Wire Line
	9100 5100 9150 5100
Wire Wire Line
	9650 5350 9700 5350
Wire Wire Line
	9650 5250 9650 5350
Connection ~ 9650 5350
Wire Wire Line
	9500 5350 9650 5350
Wire Wire Line
	9500 5250 9500 5350
Connection ~ 9500 5350
Wire Wire Line
	9150 5350 9500 5350
Wire Wire Line
	9150 5200 9150 5350
Wire Wire Line
	9100 5200 9150 5200
$Comp
L Device:C_Small C?
U 1 1 6108E4D3
P 9800 5350
AR Path="/6108E4D3" Ref="C?"  Part="1" 
AR Path="/610494E8/6108E4D3" Ref="C25"  Part="1" 
AR Path="/61B76634/6108E4D3" Ref="C66"  Part="1" 
F 0 "C66" V 9937 5350 50  0000 C CNN
F 1 "C_Small" V 10028 5350 50  0000 C CNN
F 2 "Capacitor_SMD:C_0201_0603Metric" H 9800 5350 50  0001 C CNN
F 3 "~" H 9800 5350 50  0001 C CNN
	1    9800 5350
	0    1    1    0   
$EndComp
$Comp
L Device:C_Small C?
U 1 1 6108E4D9
P 9800 4950
AR Path="/6108E4D9" Ref="C?"  Part="1" 
AR Path="/610494E8/6108E4D9" Ref="C24"  Part="1" 
AR Path="/61B76634/6108E4D9" Ref="C65"  Part="1" 
F 0 "C65" V 9571 4950 50  0000 C CNN
F 1 "C_Small" V 9662 4950 50  0000 C CNN
F 2 "Capacitor_SMD:C_0201_0603Metric" H 9800 4950 50  0001 C CNN
F 3 "~" H 9800 4950 50  0001 C CNN
	1    9800 4950
	0    1    1    0   
$EndComp
$Comp
L Device:R_Small R?
U 1 1 6108E4DF
P 9500 5150
AR Path="/6108E4DF" Ref="R?"  Part="1" 
AR Path="/610494E8/6108E4DF" Ref="R6"  Part="1" 
AR Path="/61B76634/6108E4DF" Ref="R12"  Part="1" 
F 0 "R12" H 9442 5196 50  0000 R CNN
F 1 "1M" H 9442 5105 50  0000 R CNN
F 2 "Resistor_SMD:R_0201_0603Metric" H 9500 5150 50  0001 C CNN
F 3 "~" H 9500 5150 50  0001 C CNN
	1    9500 5150
	1    0    0    -1  
$EndComp
$Comp
L Device:Crystal_Small Y?
U 1 1 6108E4E5
P 9650 5150
AR Path="/6108E4E5" Ref="Y?"  Part="1" 
AR Path="/610494E8/6108E4E5" Ref="Y1"  Part="1" 
AR Path="/61B76634/6108E4E5" Ref="Y1"  Part="1" 
F 0 "Y1" V 9604 5238 50  0000 L CNN
F 1 "24MHz" V 9695 5238 50  0000 L CNN
F 2 "" H 9650 5150 50  0001 C CNN
F 3 "~" H 9650 5150 50  0001 C CNN
F 4 "80R" V 9650 5150 50  0001 C CNN "ESR"
	1    9650 5150
	0    1    1    0   
$EndComp
Wire Wire Line
	6700 5300 6750 5300
Text GLabel 6700 5300 0    50   Input ~ 0
DRAM_VREF
Wire Wire Line
	6750 5350 6750 5400
Connection ~ 6750 5350
Wire Wire Line
	6450 5350 6750 5350
Wire Wire Line
	6750 5650 6750 5700
Wire Wire Line
	6450 5650 6750 5650
Wire Wire Line
	6750 4950 6750 5000
Wire Wire Line
	6450 4950 6750 4950
Wire Wire Line
	6450 5250 6750 5250
$Comp
L Device:C_Small C51
U 1 1 6108E4F5
P 6450 5500
F 0 "C51" H 6359 5546 50  0000 R CNN
F 1 "100nF" H 6359 5455 50  0000 R CNN
F 2 "Capacitor_SMD:C_0201_0603Metric" H 6450 5500 50  0001 C CNN
F 3 "~" H 6450 5500 50  0001 C CNN
	1    6450 5500
	1    0    0    -1  
$EndComp
$Comp
L Device:C_Small C50
U 1 1 6108E4FB
P 6450 5100
F 0 "C50" H 6359 5146 50  0000 R CNN
F 1 "100nF" H 6359 5055 50  0000 R CNN
F 2 "Capacitor_SMD:C_0201_0603Metric" H 6450 5100 50  0001 C CNN
F 3 "~" H 6450 5100 50  0001 C CNN
	1    6450 5100
	1    0    0    -1  
$EndComp
Connection ~ 6750 5650
Wire Wire Line
	6750 5600 6750 5650
$Comp
L power:GND #PWR094
U 1 1 6108E503
P 6750 5700
F 0 "#PWR094" H 6750 5450 50  0001 C CNN
F 1 "GND" H 6755 5527 50  0000 C CNN
F 2 "" H 6750 5700 50  0001 C CNN
F 3 "" H 6750 5700 50  0001 C CNN
	1    6750 5700
	1    0    0    -1  
$EndComp
Connection ~ 6750 4950
Wire Wire Line
	6750 4900 6750 4950
$Comp
L power:+1V35 #PWR093
U 1 1 6108E50B
P 6750 4900
F 0 "#PWR093" H 6750 4750 50  0001 C CNN
F 1 "+1V35" H 6692 4937 50  0000 R CNN
F 2 "" H 6750 4900 50  0001 C CNN
F 3 "" H 6750 4900 50  0001 C CNN
	1    6750 4900
	1    0    0    -1  
$EndComp
Wire Wire Line
	6750 5250 6750 5300
Wire Wire Line
	6750 5300 6750 5350
Connection ~ 6750 5300
Wire Wire Line
	6750 5300 7200 5300
Connection ~ 6750 5250
Wire Wire Line
	6750 5200 6750 5250
$Comp
L Device:R_Small R11
U 1 1 6108E518
P 6750 5500
F 0 "R11" H 6691 5546 50  0000 R CNN
F 1 "1k5" H 6691 5455 50  0000 R CNN
F 2 "Resistor_SMD:R_0201_0603Metric" H 6750 5500 50  0001 C CNN
F 3 "~" H 6750 5500 50  0001 C CNN
F 4 "0.1%" H 6750 5500 50  0001 C CNN "Tolerance"
	1    6750 5500
	1    0    0    -1  
$EndComp
$Comp
L Device:R_Small R10
U 1 1 6108E51F
P 6750 5100
F 0 "R10" H 6691 5146 50  0000 R CNN
F 1 "1k5" H 6691 5055 50  0000 R CNN
F 2 "Resistor_SMD:R_0201_0603Metric" H 6750 5100 50  0001 C CNN
F 3 "~" H 6750 5100 50  0001 C CNN
F 4 "0.1%" H 6750 5100 50  0001 C CNN "Tolerance"
	1    6750 5100
	1    0    0    -1  
$EndComp
NoConn ~ 7200 5400
Wire Wire Line
	7150 5500 7200 5500
Wire Wire Line
	7150 5550 7150 5500
$Comp
L power:GND #PWR098
U 1 1 6108E528
P 7150 5550
F 0 "#PWR098" H 7150 5300 50  0001 C CNN
F 1 "GND" H 7155 5377 50  0000 C CNN
F 2 "" H 7150 5550 50  0001 C CNN
F 3 "" H 7150 5550 50  0001 C CNN
	1    7150 5550
	1    0    0    -1  
$EndComp
Text Label 9100 4700 0    50   ~ 0
VDD_USB_CAP
Text Label 9100 4500 0    50   ~ 0
VDD_SOC_CAP
Text Label 9100 4300 0    50   ~ 0
VDD_SNVS_CAP
Text Label 9100 4100 0    50   ~ 0
VDD_HIGH_CAP
Text Label 9100 4000 0    50   ~ 0
VDD_ARM_CAP
Wire Wire Line
	7150 5200 7200 5200
NoConn ~ 7200 4100
$Comp
L power:+3.3V #PWR097
U 1 1 6108E553
P 7150 5200
F 0 "#PWR097" H 7150 5050 50  0001 C CNN
F 1 "+3.3V" V 7283 5237 50  0000 C CNN
F 2 "" H 7150 5200 50  0001 C CNN
F 3 "" H 7150 5200 50  0001 C CNN
	1    7150 5200
	0    -1   -1   0   
$EndComp
$Comp
L power:+1V35 #PWR087
U 1 1 6108E583
P 5450 1900
F 0 "#PWR087" H 5450 1750 50  0001 C CNN
F 1 "+1V35" H 5465 2073 50  0000 C CNN
F 2 "" H 5450 1900 50  0001 C CNN
F 3 "" H 5450 1900 50  0001 C CNN
	1    5450 1900
	1    0    0    -1  
$EndComp
$Comp
L power:+1V35 #PWR049
U 1 1 6108E590
P 1000 800
F 0 "#PWR049" H 1000 650 50  0001 C CNN
F 1 "+1V35" H 1015 973 50  0000 C CNN
F 2 "" H 1000 800 50  0001 C CNN
F 3 "" H 1000 800 50  0001 C CNN
	1    1000 800 
	1    0    0    -1  
$EndComp
Wire Wire Line
	9150 5500 9150 5550
Wire Wire Line
	9100 5500 9150 5500
$Comp
L power:GND #PWR?
U 1 1 6108E598
P 9150 5550
AR Path="/6108E598" Ref="#PWR?"  Part="1" 
AR Path="/610494E8/6108E598" Ref="#PWR056"  Part="1" 
AR Path="/61B76634/6108E598" Ref="#PWR0111"  Part="1" 
F 0 "#PWR0111" H 9150 5300 50  0001 C CNN
F 1 "GND" H 9155 5377 50  0000 C CNN
F 2 "" H 9150 5550 50  0001 C CNN
F 3 "" H 9150 5550 50  0001 C CNN
	1    9150 5550
	1    0    0    -1  
$EndComp
$Comp
L imx6_breakout:RT5710A U4
U 1 1 610C2D6F
P 2950 5900
F 0 "U4" H 2950 6431 50  0000 C CNN
F 1 "RT5710A" H 2950 6340 50  0000 C CNN
F 2 "Package_DFN_QFN:DFN-6-1EP_2x2mm_P0.65mm_EP1x1.6mm" H 3000 6800 50  0001 C CNN
F 3 "https://www.richtek.com/assets/product_file/RT5710A/DS5710A-04.pdf" H 3000 6800 50  0001 C CNN
	1    2950 5900
	1    0    0    -1  
$EndComp
$Comp
L Device:L_Small L2
U 1 1 610C2D75
P 3450 5650
F 0 "L2" V 3635 5650 50  0000 C CNN
F 1 "1.5uH" V 3544 5650 50  0000 C CNN
F 2 "Inductor_SMD:L_0805_2012Metric" H 3450 5650 50  0001 C CNN
F 3 "~" H 3450 5650 50  0001 C CNN
	1    3450 5650
	0    -1   -1   0   
$EndComp
Wire Wire Line
	3300 5650 3350 5650
$Comp
L Device:C_Small C37
U 1 1 610C2D7C
P 3600 5800
F 0 "C37" H 3509 5846 50  0000 R CNN
F 1 "10nF" H 3509 5755 50  0000 R CNN
F 2 "Capacitor_SMD:C_0201_0603Metric" H 3600 5800 50  0001 C CNN
F 3 "~" H 3600 5800 50  0001 C CNN
	1    3600 5800
	1    0    0    -1  
$EndComp
$Comp
L Device:R_Small R8
U 1 1 610C2D82
P 3750 5800
F 0 "R8" H 3809 5846 50  0000 L CNN
F 1 "15k" H 3809 5755 50  0000 L CNN
F 2 "Resistor_SMD:R_0201_0603Metric" H 3750 5800 50  0001 C CNN
F 3 "~" H 3750 5800 50  0001 C CNN
	1    3750 5800
	1    0    0    -1  
$EndComp
$Comp
L Device:R_Small R9
U 1 1 610C2D88
P 3750 6100
F 0 "R9" H 3809 6146 50  0000 L CNN
F 1 "12k" H 3809 6055 50  0000 L CNN
F 2 "Resistor_SMD:R_0201_0603Metric" H 3750 6100 50  0001 C CNN
F 3 "~" H 3750 6100 50  0001 C CNN
	1    3750 6100
	1    0    0    -1  
$EndComp
Wire Wire Line
	3550 5650 3600 5650
Wire Wire Line
	3600 5650 3600 5700
Wire Wire Line
	3600 5650 3750 5650
Wire Wire Line
	3750 5650 3750 5700
Connection ~ 3600 5650
Wire Wire Line
	3600 5900 3600 5950
Wire Wire Line
	3600 5950 3750 5950
Wire Wire Line
	3750 5950 3750 5900
Wire Wire Line
	3750 6000 3750 5950
Connection ~ 3750 5950
Wire Wire Line
	3600 5950 3300 5950
Connection ~ 3600 5950
$Comp
L power:GND #PWR075
U 1 1 610C2D9A
P 3750 6250
F 0 "#PWR075" H 3750 6000 50  0001 C CNN
F 1 "GND" H 3755 6077 50  0000 C CNN
F 2 "" H 3750 6250 50  0001 C CNN
F 3 "" H 3750 6250 50  0001 C CNN
	1    3750 6250
	1    0    0    -1  
$EndComp
$Comp
L power:GND #PWR069
U 1 1 610C2DA0
P 2950 6400
F 0 "#PWR069" H 2950 6150 50  0001 C CNN
F 1 "GND" H 2955 6227 50  0000 C CNN
F 2 "" H 2950 6400 50  0001 C CNN
F 3 "" H 2950 6400 50  0001 C CNN
	1    2950 6400
	1    0    0    -1  
$EndComp
Wire Wire Line
	2950 6350 2950 6400
Wire Wire Line
	3750 6200 3750 6250
$Comp
L Device:C_Small C40
U 1 1 610C2DA8
P 4000 5950
F 0 "C40" H 4092 5996 50  0000 L CNN
F 1 "10uF" H 4092 5905 50  0000 L CNN
F 2 "Capacitor_SMD:C_0402_1005Metric" H 4000 5950 50  0001 C CNN
F 3 "~" H 4000 5950 50  0001 C CNN
	1    4000 5950
	1    0    0    -1  
$EndComp
Wire Wire Line
	4000 5850 4000 5650
Wire Wire Line
	4000 5650 3750 5650
Connection ~ 3750 5650
$Comp
L power:GND #PWR080
U 1 1 610C2DB1
P 4000 6250
F 0 "#PWR080" H 4000 6000 50  0001 C CNN
F 1 "GND" H 4005 6077 50  0000 C CNN
F 2 "" H 4000 6250 50  0001 C CNN
F 3 "" H 4000 6250 50  0001 C CNN
	1    4000 6250
	1    0    0    -1  
$EndComp
Wire Wire Line
	4000 6050 4000 6250
Wire Wire Line
	4000 5600 4000 5650
Connection ~ 4000 5650
Wire Wire Line
	2600 5950 2550 5950
$Comp
L Device:R_Small R5
U 1 1 610CD882
P 2400 5950
F 0 "R5" V 2204 5950 50  0000 C CNN
F 1 "1M" V 2295 5950 50  0000 C CNN
F 2 "Resistor_SMD:R_0201_0603Metric" H 2400 5950 50  0001 C CNN
F 3 "~" H 2400 5950 50  0001 C CNN
	1    2400 5950
	0    1    1    0   
$EndComp
$Comp
L Device:C_Small C31
U 1 1 610D44D0
P 2550 6100
F 0 "C31" H 2459 6146 50  0000 R CNN
F 1 "100nF" H 2459 6055 50  0000 R CNN
F 2 "Capacitor_SMD:C_0201_0603Metric" H 2550 6100 50  0001 C CNN
F 3 "~" H 2550 6100 50  0001 C CNN
	1    2550 6100
	1    0    0    -1  
$EndComp
Wire Wire Line
	2550 5950 2550 6000
$Comp
L power:GND #PWR065
U 1 1 610D7DE3
P 2550 6250
F 0 "#PWR065" H 2550 6000 50  0001 C CNN
F 1 "GND" H 2555 6077 50  0000 C CNN
F 2 "" H 2550 6250 50  0001 C CNN
F 3 "" H 2550 6250 50  0001 C CNN
	1    2550 6250
	1    0    0    -1  
$EndComp
Wire Wire Line
	2550 6200 2550 6250
Wire Wire Line
	1900 6050 1900 6250
$Comp
L power:GND #PWR058
U 1 1 610C2DD0
P 1900 6250
F 0 "#PWR058" H 1900 6000 50  0001 C CNN
F 1 "GND" H 1905 6077 50  0000 C CNN
F 2 "" H 1900 6250 50  0001 C CNN
F 3 "" H 1900 6250 50  0001 C CNN
	1    1900 6250
	1    0    0    -1  
$EndComp
$Comp
L Device:C_Small C27
U 1 1 610C2DC8
P 1900 5950
F 0 "C27" H 1809 5996 50  0000 R CNN
F 1 "10uF" H 1809 5905 50  0000 R CNN
F 2 "Capacitor_SMD:C_0402_1005Metric" H 1900 5950 50  0001 C CNN
F 3 "~" H 1900 5950 50  0001 C CNN
	1    1900 5950
	1    0    0    -1  
$EndComp
$Comp
L power:+1V35 #PWR079
U 1 1 610E3237
P 4000 5600
F 0 "#PWR079" H 4000 5450 50  0001 C CNN
F 1 "+1V35" H 4015 5773 50  0000 C CNN
F 2 "" H 4000 5600 50  0001 C CNN
F 3 "" H 4000 5600 50  0001 C CNN
	1    4000 5600
	1    0    0    -1  
$EndComp
Wire Wire Line
	2500 5950 2550 5950
Connection ~ 2550 5950
$Comp
L power:+3.3V #PWR059
U 1 1 61016562
P 2250 5900
F 0 "#PWR059" H 2250 5750 50  0001 C CNN
F 1 "+3.3V" H 2192 5937 50  0000 R CNN
F 2 "" H 2250 5900 50  0001 C CNN
F 3 "" H 2250 5900 50  0001 C CNN
	1    2250 5900
	1    0    0    -1  
$EndComp
Wire Wire Line
	2250 5900 2250 5950
Wire Wire Line
	2250 5950 2300 5950
$Comp
L Device:C_Small C22
U 1 1 61D195E6
P 1000 1000
F 0 "C22" H 1092 1046 50  0000 L CNN
F 1 "220nF" H 1092 955 50  0000 L CNN
F 2 "Capacitor_SMD:C_0201_0603Metric" H 1000 1000 50  0001 C CNN
F 3 "~" H 1000 1000 50  0001 C CNN
	1    1000 1000
	1    0    0    -1  
$EndComp
$Comp
L Device:C_Small C24
U 1 1 61D1CFDD
P 1450 1000
F 0 "C24" H 1542 1046 50  0000 L CNN
F 1 "220nF" H 1542 955 50  0000 L CNN
F 2 "Capacitor_SMD:C_0201_0603Metric" H 1450 1000 50  0001 C CNN
F 3 "~" H 1450 1000 50  0001 C CNN
	1    1450 1000
	1    0    0    -1  
$EndComp
$Comp
L Device:C_Small C26
U 1 1 61D1D411
P 1900 1000
F 0 "C26" H 1992 1046 50  0000 L CNN
F 1 "4.7uF" H 1992 955 50  0000 L CNN
F 2 "Capacitor_SMD:C_0402_1005Metric" H 1900 1000 50  0001 C CNN
F 3 "~" H 1900 1000 50  0001 C CNN
	1    1900 1000
	1    0    0    -1  
$EndComp
$Comp
L Device:C_Small C28
U 1 1 61D1DA55
P 2300 1000
F 0 "C28" H 2392 1046 50  0000 L CNN
F 1 "22uF" H 2392 955 50  0000 L CNN
F 2 "Capacitor_SMD:C_0402_1005Metric" H 2300 1000 50  0001 C CNN
F 3 "~" H 2300 1000 50  0001 C CNN
	1    2300 1000
	1    0    0    -1  
$EndComp
Text Label 1900 850  0    50   ~ 0
VDD_SOC_IN
Wire Wire Line
	2300 900  2300 850 
Wire Wire Line
	2300 850  1900 850 
Wire Wire Line
	1000 850  1000 900 
Wire Wire Line
	1900 900  1900 850 
Connection ~ 1900 850 
Wire Wire Line
	1900 850  1450 850 
Wire Wire Line
	1450 900  1450 850 
Connection ~ 1450 850 
Wire Wire Line
	1450 850  1000 850 
Wire Wire Line
	1000 800  1000 850 
Connection ~ 1000 850 
$Comp
L power:GND #PWR050
U 1 1 61D43735
P 1000 1150
F 0 "#PWR050" H 1000 900 50  0001 C CNN
F 1 "GND" H 1005 977 50  0000 C CNN
F 2 "" H 1000 1150 50  0001 C CNN
F 3 "" H 1000 1150 50  0001 C CNN
	1    1000 1150
	1    0    0    -1  
$EndComp
Wire Wire Line
	1000 1100 1000 1150
$Comp
L power:GND #PWR053
U 1 1 61D4906F
P 1450 1150
F 0 "#PWR053" H 1450 900 50  0001 C CNN
F 1 "GND" H 1455 977 50  0000 C CNN
F 2 "" H 1450 1150 50  0001 C CNN
F 3 "" H 1450 1150 50  0001 C CNN
	1    1450 1150
	1    0    0    -1  
$EndComp
Wire Wire Line
	1450 1100 1450 1150
$Comp
L power:GND #PWR056
U 1 1 61D4D352
P 1900 1150
F 0 "#PWR056" H 1900 900 50  0001 C CNN
F 1 "GND" H 1905 977 50  0000 C CNN
F 2 "" H 1900 1150 50  0001 C CNN
F 3 "" H 1900 1150 50  0001 C CNN
	1    1900 1150
	1    0    0    -1  
$EndComp
Wire Wire Line
	1900 1100 1900 1150
$Comp
L power:GND #PWR060
U 1 1 61D51777
P 2300 1150
F 0 "#PWR060" H 2300 900 50  0001 C CNN
F 1 "GND" H 2305 977 50  0000 C CNN
F 2 "" H 2300 1150 50  0001 C CNN
F 3 "" H 2300 1150 50  0001 C CNN
	1    2300 1150
	1    0    0    -1  
$EndComp
Wire Wire Line
	2300 1100 2300 1150
Text Label 9100 4600 0    50   ~ 0
VDD_SOC_IN
Text Label 9100 4200 0    50   ~ 0
VDD_HIGH_IN
Text Label 9100 4400 0    50   ~ 0
VDD_SNVS_IN
Text Label 9100 4800 0    50   ~ 0
VDDA_ADC_3V3
Text Label 9650 1950 0    50   ~ 0
VDD_USB_CAP
Text Label 5550 850  0    50   ~ 0
VDD_SOC_CAP
Text Label 8700 850  0    50   ~ 0
VDD_SNVS_CAP
Text Label 7750 850  0    50   ~ 0
VDD_HIGH_CAP
Text Label 6800 850  0    50   ~ 0
VDD_HIGH_IN
Text Label 9450 850  0    50   ~ 0
VDD_SNVS_IN
$Comp
L Device:C_Small C33
U 1 1 61D7D505
P 3100 1000
F 0 "C33" H 3192 1046 50  0000 L CNN
F 1 "220nF" H 3192 955 50  0000 L CNN
F 2 "Capacitor_SMD:C_0201_0603Metric" H 3100 1000 50  0001 C CNN
F 3 "~" H 3100 1000 50  0001 C CNN
	1    3100 1000
	1    0    0    -1  
$EndComp
$Comp
L Device:C_Small C34
U 1 1 61D7D50B
P 3550 1000
F 0 "C34" H 3642 1046 50  0000 L CNN
F 1 "220nF" H 3642 955 50  0000 L CNN
F 2 "Capacitor_SMD:C_0201_0603Metric" H 3550 1000 50  0001 C CNN
F 3 "~" H 3550 1000 50  0001 C CNN
	1    3550 1000
	1    0    0    -1  
$EndComp
$Comp
L Device:C_Small C38
U 1 1 61D7D517
P 4000 1000
F 0 "C38" H 4092 1046 50  0000 L CNN
F 1 "22uF" H 4092 955 50  0000 L CNN
F 2 "Capacitor_SMD:C_0402_1005Metric" H 4000 1000 50  0001 C CNN
F 3 "~" H 4000 1000 50  0001 C CNN
	1    4000 1000
	1    0    0    -1  
$EndComp
Wire Wire Line
	4000 900  4000 850 
Wire Wire Line
	3100 850  3100 900 
Wire Wire Line
	3550 900  3550 850 
Wire Wire Line
	3550 850  3100 850 
$Comp
L power:GND #PWR070
U 1 1 61D7D529
P 3100 1150
F 0 "#PWR070" H 3100 900 50  0001 C CNN
F 1 "GND" H 3105 977 50  0000 C CNN
F 2 "" H 3100 1150 50  0001 C CNN
F 3 "" H 3100 1150 50  0001 C CNN
	1    3100 1150
	1    0    0    -1  
$EndComp
Wire Wire Line
	3100 1100 3100 1150
$Comp
L power:GND #PWR071
U 1 1 61D7D530
P 3550 1150
F 0 "#PWR071" H 3550 900 50  0001 C CNN
F 1 "GND" H 3555 977 50  0000 C CNN
F 2 "" H 3550 1150 50  0001 C CNN
F 3 "" H 3550 1150 50  0001 C CNN
	1    3550 1150
	1    0    0    -1  
$EndComp
Wire Wire Line
	3550 1100 3550 1150
$Comp
L power:GND #PWR076
U 1 1 61D7D53E
P 4000 1150
F 0 "#PWR076" H 4000 900 50  0001 C CNN
F 1 "GND" H 4005 977 50  0000 C CNN
F 2 "" H 4000 1150 50  0001 C CNN
F 3 "" H 4000 1150 50  0001 C CNN
	1    4000 1150
	1    0    0    -1  
$EndComp
Wire Wire Line
	4000 1100 4000 1150
Wire Wire Line
	4000 850  3550 850 
Connection ~ 3550 850 
Text Label 3550 850  0    50   ~ 0
VDD_ARM_CAP
$Comp
L Device:C_Small C44
U 1 1 61DA5186
P 5100 1000
F 0 "C44" H 5192 1046 50  0000 L CNN
F 1 "220nF" H 5192 955 50  0000 L CNN
F 2 "Capacitor_SMD:C_0201_0603Metric" H 5100 1000 50  0001 C CNN
F 3 "~" H 5100 1000 50  0001 C CNN
	1    5100 1000
	1    0    0    -1  
$EndComp
$Comp
L Device:C_Small C46
U 1 1 61DA518C
P 5550 1000
F 0 "C46" H 5642 1046 50  0000 L CNN
F 1 "220nF" H 5642 955 50  0000 L CNN
F 2 "Capacitor_SMD:C_0201_0603Metric" H 5550 1000 50  0001 C CNN
F 3 "~" H 5550 1000 50  0001 C CNN
	1    5550 1000
	1    0    0    -1  
$EndComp
$Comp
L Device:C_Small C48
U 1 1 61DA5192
P 6000 1000
F 0 "C48" H 6092 1046 50  0000 L CNN
F 1 "22uF" H 6092 955 50  0000 L CNN
F 2 "Capacitor_SMD:C_0402_1005Metric" H 6000 1000 50  0001 C CNN
F 3 "~" H 6000 1000 50  0001 C CNN
	1    6000 1000
	1    0    0    -1  
$EndComp
Wire Wire Line
	6000 900  6000 850 
Wire Wire Line
	5100 850  5100 900 
Wire Wire Line
	5550 900  5550 850 
Wire Wire Line
	5550 850  5100 850 
$Comp
L power:GND #PWR086
U 1 1 61DA519E
P 5100 1150
F 0 "#PWR086" H 5100 900 50  0001 C CNN
F 1 "GND" H 5105 977 50  0000 C CNN
F 2 "" H 5100 1150 50  0001 C CNN
F 3 "" H 5100 1150 50  0001 C CNN
	1    5100 1150
	1    0    0    -1  
$EndComp
Wire Wire Line
	5100 1100 5100 1150
$Comp
L power:GND #PWR089
U 1 1 61DA51A5
P 5550 1150
F 0 "#PWR089" H 5550 900 50  0001 C CNN
F 1 "GND" H 5555 977 50  0000 C CNN
F 2 "" H 5550 1150 50  0001 C CNN
F 3 "" H 5550 1150 50  0001 C CNN
	1    5550 1150
	1    0    0    -1  
$EndComp
Wire Wire Line
	5550 1100 5550 1150
$Comp
L power:GND #PWR091
U 1 1 61DA51AC
P 6000 1150
F 0 "#PWR091" H 6000 900 50  0001 C CNN
F 1 "GND" H 6005 977 50  0000 C CNN
F 2 "" H 6000 1150 50  0001 C CNN
F 3 "" H 6000 1150 50  0001 C CNN
	1    6000 1150
	1    0    0    -1  
$EndComp
Wire Wire Line
	6000 1100 6000 1150
Wire Wire Line
	6000 850  5550 850 
Connection ~ 5550 850 
$Comp
L Device:C_Small C42
U 1 1 61DABB41
P 4650 1000
F 0 "C42" H 4742 1046 50  0000 L CNN
F 1 "220nF" H 4742 955 50  0000 L CNN
F 2 "Capacitor_SMD:C_0201_0603Metric" H 4650 1000 50  0001 C CNN
F 3 "~" H 4650 1000 50  0001 C CNN
	1    4650 1000
	1    0    0    -1  
$EndComp
$Comp
L power:GND #PWR083
U 1 1 61DABB48
P 4650 1150
F 0 "#PWR083" H 4650 900 50  0001 C CNN
F 1 "GND" H 4655 977 50  0000 C CNN
F 2 "" H 4650 1150 50  0001 C CNN
F 3 "" H 4650 1150 50  0001 C CNN
	1    4650 1150
	1    0    0    -1  
$EndComp
Wire Wire Line
	4650 1100 4650 1150
Wire Wire Line
	5100 850  4650 850 
Connection ~ 5100 850 
Wire Wire Line
	4650 850  4650 900 
$Comp
L Device:C_Small C52
U 1 1 61DC81C6
P 6800 1000
F 0 "C52" H 6892 1046 50  0000 L CNN
F 1 "220nF" H 6892 955 50  0000 L CNN
F 2 "Capacitor_SMD:C_0201_0603Metric" H 6800 1000 50  0001 C CNN
F 3 "~" H 6800 1000 50  0001 C CNN
	1    6800 1000
	1    0    0    -1  
$EndComp
$Comp
L Device:C_Small C54
U 1 1 61DC81CC
P 7250 1000
F 0 "C54" H 7342 1046 50  0000 L CNN
F 1 "22uF" H 7342 955 50  0000 L CNN
F 2 "Capacitor_SMD:C_0402_1005Metric" H 7250 1000 50  0001 C CNN
F 3 "~" H 7250 1000 50  0001 C CNN
	1    7250 1000
	1    0    0    -1  
$EndComp
Wire Wire Line
	7250 900  7250 850 
Wire Wire Line
	6800 900  6800 850 
$Comp
L power:GND #PWR095
U 1 1 61DC81D4
P 6800 1150
F 0 "#PWR095" H 6800 900 50  0001 C CNN
F 1 "GND" H 6805 977 50  0000 C CNN
F 2 "" H 6800 1150 50  0001 C CNN
F 3 "" H 6800 1150 50  0001 C CNN
	1    6800 1150
	1    0    0    -1  
$EndComp
Wire Wire Line
	6800 1100 6800 1150
$Comp
L power:GND #PWR099
U 1 1 61DC81DB
P 7250 1150
F 0 "#PWR099" H 7250 900 50  0001 C CNN
F 1 "GND" H 7255 977 50  0000 C CNN
F 2 "" H 7250 1150 50  0001 C CNN
F 3 "" H 7250 1150 50  0001 C CNN
	1    7250 1150
	1    0    0    -1  
$EndComp
Wire Wire Line
	7250 1100 7250 1150
Wire Wire Line
	6800 850  7250 850 
$Comp
L Device:C_Small C57
U 1 1 61DD6FA7
P 7750 1000
F 0 "C57" H 7842 1046 50  0000 L CNN
F 1 "220nF" H 7842 955 50  0000 L CNN
F 2 "Capacitor_SMD:C_0201_0603Metric" H 7750 1000 50  0001 C CNN
F 3 "~" H 7750 1000 50  0001 C CNN
	1    7750 1000
	1    0    0    -1  
$EndComp
Wire Wire Line
	8200 900  8200 850 
Wire Wire Line
	7750 900  7750 850 
$Comp
L power:GND #PWR0104
U 1 1 61DD6FB5
P 7750 1150
F 0 "#PWR0104" H 7750 900 50  0001 C CNN
F 1 "GND" H 7755 977 50  0000 C CNN
F 2 "" H 7750 1150 50  0001 C CNN
F 3 "" H 7750 1150 50  0001 C CNN
	1    7750 1150
	1    0    0    -1  
$EndComp
Wire Wire Line
	7750 1100 7750 1150
$Comp
L power:GND #PWR0106
U 1 1 61DD6FBC
P 8200 1150
F 0 "#PWR0106" H 8200 900 50  0001 C CNN
F 1 "GND" H 8205 977 50  0000 C CNN
F 2 "" H 8200 1150 50  0001 C CNN
F 3 "" H 8200 1150 50  0001 C CNN
	1    8200 1150
	1    0    0    -1  
$EndComp
Wire Wire Line
	8200 1100 8200 1150
Wire Wire Line
	7750 850  8200 850 
$Comp
L Device:C_Small C59
U 1 1 61DDD2B2
P 8200 1000
F 0 "C59" H 8292 1046 50  0000 L CNN
F 1 "10uF" H 8292 955 50  0000 L CNN
F 2 "Capacitor_SMD:C_0402_1005Metric" H 8200 1000 50  0001 C CNN
F 3 "~" H 8200 1000 50  0001 C CNN
	1    8200 1000
	1    0    0    -1  
$EndComp
$Comp
L Device:C_Small C61
U 1 1 61DE3B75
P 8700 1000
F 0 "C61" H 8792 1046 50  0000 L CNN
F 1 "220nF" H 8792 955 50  0000 L CNN
F 2 "Capacitor_SMD:C_0201_0603Metric" H 8700 1000 50  0001 C CNN
F 3 "~" H 8700 1000 50  0001 C CNN
	1    8700 1000
	1    0    0    -1  
$EndComp
Wire Wire Line
	8700 900  8700 850 
$Comp
L power:GND #PWR0109
U 1 1 61DE3B7C
P 8700 1150
F 0 "#PWR0109" H 8700 900 50  0001 C CNN
F 1 "GND" H 8705 977 50  0000 C CNN
F 2 "" H 8700 1150 50  0001 C CNN
F 3 "" H 8700 1150 50  0001 C CNN
	1    8700 1150
	1    0    0    -1  
$EndComp
Wire Wire Line
	8700 1100 8700 1150
$Comp
L Device:C_Small C63
U 1 1 61DEA676
P 9450 1000
F 0 "C63" H 9542 1046 50  0000 L CNN
F 1 "220nF" H 9542 955 50  0000 L CNN
F 2 "Capacitor_SMD:C_0201_0603Metric" H 9450 1000 50  0001 C CNN
F 3 "~" H 9450 1000 50  0001 C CNN
	1    9450 1000
	1    0    0    -1  
$EndComp
Wire Wire Line
	9450 900  9450 850 
$Comp
L power:GND #PWR0112
U 1 1 61DEA67D
P 9450 1150
F 0 "#PWR0112" H 9450 900 50  0001 C CNN
F 1 "GND" H 9455 977 50  0000 C CNN
F 2 "" H 9450 1150 50  0001 C CNN
F 3 "" H 9450 1150 50  0001 C CNN
	1    9450 1150
	1    0    0    -1  
$EndComp
Wire Wire Line
	9450 1100 9450 1150
$Comp
L Device:C_Small C56
U 1 1 61E1238A
P 7700 2100
F 0 "C56" H 7792 2146 50  0000 L CNN
F 1 "220nF" H 7792 2055 50  0000 L CNN
F 2 "Capacitor_SMD:C_0201_0603Metric" H 7700 2100 50  0001 C CNN
F 3 "~" H 7700 2100 50  0001 C CNN
	1    7700 2100
	1    0    0    -1  
$EndComp
Wire Wire Line
	8150 2000 8150 1950
Wire Wire Line
	7700 2000 7700 1950
$Comp
L power:GND #PWR0103
U 1 1 61E12392
P 7700 2250
F 0 "#PWR0103" H 7700 2000 50  0001 C CNN
F 1 "GND" H 7705 2077 50  0000 C CNN
F 2 "" H 7700 2250 50  0001 C CNN
F 3 "" H 7700 2250 50  0001 C CNN
	1    7700 2250
	1    0    0    -1  
$EndComp
Wire Wire Line
	7700 2200 7700 2250
$Comp
L power:GND #PWR0105
U 1 1 61E12399
P 8150 2250
F 0 "#PWR0105" H 8150 2000 50  0001 C CNN
F 1 "GND" H 8155 2077 50  0000 C CNN
F 2 "" H 8150 2250 50  0001 C CNN
F 3 "" H 8150 2250 50  0001 C CNN
	1    8150 2250
	1    0    0    -1  
$EndComp
Wire Wire Line
	8150 2200 8150 2250
Wire Wire Line
	7700 1950 8150 1950
$Comp
L Device:C_Small C58
U 1 1 61E123A1
P 8150 2100
F 0 "C58" H 8242 2146 50  0000 L CNN
F 1 "10uF" H 8242 2055 50  0000 L CNN
F 2 "Capacitor_SMD:C_0402_1005Metric" H 8150 2100 50  0001 C CNN
F 3 "~" H 8150 2100 50  0001 C CNN
	1    8150 2100
	1    0    0    -1  
$EndComp
$Comp
L Device:C_Small C55
U 1 1 61E1B336
P 7250 2100
F 0 "C55" H 7342 2146 50  0000 L CNN
F 1 "220nF" H 7342 2055 50  0000 L CNN
F 2 "Capacitor_SMD:C_0201_0603Metric" H 7250 2100 50  0001 C CNN
F 3 "~" H 7250 2100 50  0001 C CNN
	1    7250 2100
	1    0    0    -1  
$EndComp
Wire Wire Line
	7250 1950 7250 2000
Wire Wire Line
	7700 1950 7250 1950
$Comp
L power:GND #PWR0100
U 1 1 61E1B33E
P 7250 2250
F 0 "#PWR0100" H 7250 2000 50  0001 C CNN
F 1 "GND" H 7255 2077 50  0000 C CNN
F 2 "" H 7250 2250 50  0001 C CNN
F 3 "" H 7250 2250 50  0001 C CNN
	1    7250 2250
	1    0    0    -1  
$EndComp
Wire Wire Line
	7250 2200 7250 2250
$Comp
L Device:C_Small C53
U 1 1 61E1B345
P 6800 2100
F 0 "C53" H 6892 2146 50  0000 L CNN
F 1 "220nF" H 6892 2055 50  0000 L CNN
F 2 "Capacitor_SMD:C_0201_0603Metric" H 6800 2100 50  0001 C CNN
F 3 "~" H 6800 2100 50  0001 C CNN
	1    6800 2100
	1    0    0    -1  
$EndComp
$Comp
L power:GND #PWR096
U 1 1 61E1B34B
P 6800 2250
F 0 "#PWR096" H 6800 2000 50  0001 C CNN
F 1 "GND" H 6805 2077 50  0000 C CNN
F 2 "" H 6800 2250 50  0001 C CNN
F 3 "" H 6800 2250 50  0001 C CNN
	1    6800 2250
	1    0    0    -1  
$EndComp
Wire Wire Line
	6800 2200 6800 2250
Wire Wire Line
	7250 1950 6800 1950
Connection ~ 7250 1950
Wire Wire Line
	6800 1950 6800 2000
$Comp
L Device:C_Small C49
U 1 1 61E22A0A
P 6350 2100
F 0 "C49" H 6442 2146 50  0000 L CNN
F 1 "220nF" H 6442 2055 50  0000 L CNN
F 2 "Capacitor_SMD:C_0201_0603Metric" H 6350 2100 50  0001 C CNN
F 3 "~" H 6350 2100 50  0001 C CNN
	1    6350 2100
	1    0    0    -1  
$EndComp
Wire Wire Line
	6350 1950 6350 2000
Wire Wire Line
	6800 1950 6350 1950
$Comp
L power:GND #PWR092
U 1 1 61E22A12
P 6350 2250
F 0 "#PWR092" H 6350 2000 50  0001 C CNN
F 1 "GND" H 6355 2077 50  0000 C CNN
F 2 "" H 6350 2250 50  0001 C CNN
F 3 "" H 6350 2250 50  0001 C CNN
	1    6350 2250
	1    0    0    -1  
$EndComp
Wire Wire Line
	6350 2200 6350 2250
$Comp
L Device:C_Small C47
U 1 1 61E22A19
P 5900 2100
F 0 "C47" H 5992 2146 50  0000 L CNN
F 1 "220nF" H 5992 2055 50  0000 L CNN
F 2 "Capacitor_SMD:C_0201_0603Metric" H 5900 2100 50  0001 C CNN
F 3 "~" H 5900 2100 50  0001 C CNN
	1    5900 2100
	1    0    0    -1  
$EndComp
$Comp
L power:GND #PWR090
U 1 1 61E22A1F
P 5900 2250
F 0 "#PWR090" H 5900 2000 50  0001 C CNN
F 1 "GND" H 5905 2077 50  0000 C CNN
F 2 "" H 5900 2250 50  0001 C CNN
F 3 "" H 5900 2250 50  0001 C CNN
	1    5900 2250
	1    0    0    -1  
$EndComp
Wire Wire Line
	5900 2200 5900 2250
Wire Wire Line
	6350 1950 5900 1950
Connection ~ 6350 1950
Wire Wire Line
	5900 1950 5900 2000
$Comp
L Device:C_Small C45
U 1 1 61E2AD98
P 5450 2100
F 0 "C45" H 5542 2146 50  0000 L CNN
F 1 "220nF" H 5542 2055 50  0000 L CNN
F 2 "Capacitor_SMD:C_0201_0603Metric" H 5450 2100 50  0001 C CNN
F 3 "~" H 5450 2100 50  0001 C CNN
	1    5450 2100
	1    0    0    -1  
$EndComp
Wire Wire Line
	5450 1950 5450 2000
Wire Wire Line
	5900 1950 5450 1950
$Comp
L power:GND #PWR088
U 1 1 61E2ADA0
P 5450 2250
F 0 "#PWR088" H 5450 2000 50  0001 C CNN
F 1 "GND" H 5455 2077 50  0000 C CNN
F 2 "" H 5450 2250 50  0001 C CNN
F 3 "" H 5450 2250 50  0001 C CNN
	1    5450 2250
	1    0    0    -1  
$EndComp
Wire Wire Line
	5450 2200 5450 2250
Connection ~ 7700 1950
Connection ~ 6800 1950
Connection ~ 5900 1950
Text Label 7200 4000 2    50   ~ 0
NVCC_DRAM
Text Label 7700 1950 0    50   ~ 0
NVCC_DRAM
Wire Wire Line
	5450 1900 5450 1950
Connection ~ 5450 1950
$Comp
L Device:C_Small C60
U 1 1 61E6C1A3
P 8650 2100
F 0 "C60" H 8742 2146 50  0000 L CNN
F 1 "220nF" H 8742 2055 50  0000 L CNN
F 2 "Capacitor_SMD:C_0201_0603Metric" H 8650 2100 50  0001 C CNN
F 3 "~" H 8650 2100 50  0001 C CNN
	1    8650 2100
	1    0    0    -1  
$EndComp
Wire Wire Line
	9100 2000 9100 1950
Wire Wire Line
	8650 2000 8650 1950
$Comp
L power:GND #PWR0108
U 1 1 61E6C1AB
P 8650 2250
F 0 "#PWR0108" H 8650 2000 50  0001 C CNN
F 1 "GND" H 8655 2077 50  0000 C CNN
F 2 "" H 8650 2250 50  0001 C CNN
F 3 "" H 8650 2250 50  0001 C CNN
	1    8650 2250
	1    0    0    -1  
$EndComp
Wire Wire Line
	8650 2200 8650 2250
$Comp
L power:GND #PWR0110
U 1 1 61E6C1B2
P 9100 2250
F 0 "#PWR0110" H 9100 2000 50  0001 C CNN
F 1 "GND" H 9105 2077 50  0000 C CNN
F 2 "" H 9100 2250 50  0001 C CNN
F 3 "" H 9100 2250 50  0001 C CNN
	1    9100 2250
	1    0    0    -1  
$EndComp
Wire Wire Line
	9100 2200 9100 2250
Wire Wire Line
	8650 1950 9100 1950
$Comp
L Device:C_Small C62
U 1 1 61E6C1BA
P 9100 2100
F 0 "C62" H 9192 2146 50  0000 L CNN
F 1 "10uF" H 9192 2055 50  0000 L CNN
F 2 "Capacitor_SMD:C_0402_1005Metric" H 9100 2100 50  0001 C CNN
F 3 "~" H 9100 2100 50  0001 C CNN
	1    9100 2100
	1    0    0    -1  
$EndComp
Text Label 7200 4600 2    50   ~ 0
NVCC_PLL
Text Label 8800 1950 0    50   ~ 0
NVCC_PLL
$Comp
L power:+3.3V #PWR0107
U 1 1 61E83F01
P 8650 1900
F 0 "#PWR0107" H 8650 1750 50  0001 C CNN
F 1 "+3.3V" H 8665 2073 50  0000 C CNN
F 2 "" H 8650 1900 50  0001 C CNN
F 3 "" H 8650 1900 50  0001 C CNN
	1    8650 1900
	1    0    0    -1  
$EndComp
Wire Wire Line
	8650 1900 8650 1950
Connection ~ 8650 1950
$Comp
L Device:C_Small C64
U 1 1 61E9DCAE
P 9650 2100
F 0 "C64" H 9742 2146 50  0000 L CNN
F 1 "220nF" H 9742 2055 50  0000 L CNN
F 2 "Capacitor_SMD:C_0201_0603Metric" H 9650 2100 50  0001 C CNN
F 3 "~" H 9650 2100 50  0001 C CNN
	1    9650 2100
	1    0    0    -1  
$EndComp
Wire Wire Line
	10100 2000 10100 1950
Wire Wire Line
	9650 2000 9650 1950
$Comp
L power:GND #PWR0113
U 1 1 61E9DCB6
P 9650 2250
F 0 "#PWR0113" H 9650 2000 50  0001 C CNN
F 1 "GND" H 9655 2077 50  0000 C CNN
F 2 "" H 9650 2250 50  0001 C CNN
F 3 "" H 9650 2250 50  0001 C CNN
	1    9650 2250
	1    0    0    -1  
$EndComp
Wire Wire Line
	9650 2200 9650 2250
$Comp
L power:GND #PWR0116
U 1 1 61E9DCBD
P 10100 2250
F 0 "#PWR0116" H 10100 2000 50  0001 C CNN
F 1 "GND" H 10105 2077 50  0000 C CNN
F 2 "" H 10100 2250 50  0001 C CNN
F 3 "" H 10100 2250 50  0001 C CNN
	1    10100 2250
	1    0    0    -1  
$EndComp
Wire Wire Line
	10100 2200 10100 2250
Wire Wire Line
	9650 1950 10100 1950
$Comp
L Device:C_Small C67
U 1 1 61E9DCC5
P 10100 2100
F 0 "C67" H 10192 2146 50  0000 L CNN
F 1 "10uF" H 10192 2055 50  0000 L CNN
F 2 "Capacitor_SMD:C_0201_0603Metric" H 10100 2100 50  0001 C CNN
F 3 "~" H 10100 2100 50  0001 C CNN
	1    10100 2100
	1    0    0    -1  
$EndComp
Text Label 7200 3900 2    50   ~ 0
NVCC_CSI
Text Label 7200 4200 2    50   ~ 0
NVCC_ENET
Text Label 7200 4300 2    50   ~ 0
NVCC_GPIO
Text Label 7200 4400 2    50   ~ 0
NVCC_LCD
Text Label 7200 4500 2    50   ~ 0
NVCC_NAND
Text Label 7200 4700 2    50   ~ 0
NVCC_SD1
Text Label 7200 4800 2    50   ~ 0
NVCC_UART
Text Label 1300 1950 2    50   ~ 0
NVCC_CSI
Text Label 1850 1950 2    50   ~ 0
NVCC_ENET
Text Label 2400 1950 2    50   ~ 0
NVCC_GPIO
Text Label 2950 1950 2    50   ~ 0
NVCC_LCD
Text Label 3550 1950 2    50   ~ 0
NVCC_NAND
Text Label 4100 1950 2    50   ~ 0
NVCC_SD1
Text Label 4700 1950 2    50   ~ 0
NVCC_UART
$Comp
L Device:C_Small C23
U 1 1 61F14A95
P 1300 2100
F 0 "C23" H 1392 2146 50  0000 L CNN
F 1 "220nF" H 1392 2055 50  0000 L CNN
F 2 "Capacitor_SMD:C_0201_0603Metric" H 1300 2100 50  0001 C CNN
F 3 "~" H 1300 2100 50  0001 C CNN
	1    1300 2100
	1    0    0    -1  
$EndComp
$Comp
L power:GND #PWR052
U 1 1 61F14A9C
P 1300 2250
F 0 "#PWR052" H 1300 2000 50  0001 C CNN
F 1 "GND" H 1305 2077 50  0000 C CNN
F 2 "" H 1300 2250 50  0001 C CNN
F 3 "" H 1300 2250 50  0001 C CNN
	1    1300 2250
	1    0    0    -1  
$EndComp
Wire Wire Line
	1300 2200 1300 2250
$Comp
L power:+3.3V #PWR051
U 1 1 61F14AA4
P 1300 1900
F 0 "#PWR051" H 1300 1750 50  0001 C CNN
F 1 "+3.3V" H 1315 2073 50  0000 C CNN
F 2 "" H 1300 1900 50  0001 C CNN
F 3 "" H 1300 1900 50  0001 C CNN
	1    1300 1900
	1    0    0    -1  
$EndComp
Wire Wire Line
	1300 1900 1300 2000
$Comp
L Device:C_Small C25
U 1 1 61F40413
P 1850 2100
F 0 "C25" H 1942 2146 50  0000 L CNN
F 1 "220nF" H 1942 2055 50  0000 L CNN
F 2 "Capacitor_SMD:C_0201_0603Metric" H 1850 2100 50  0001 C CNN
F 3 "~" H 1850 2100 50  0001 C CNN
	1    1850 2100
	1    0    0    -1  
$EndComp
$Comp
L power:GND #PWR055
U 1 1 61F40419
P 1850 2250
F 0 "#PWR055" H 1850 2000 50  0001 C CNN
F 1 "GND" H 1855 2077 50  0000 C CNN
F 2 "" H 1850 2250 50  0001 C CNN
F 3 "" H 1850 2250 50  0001 C CNN
	1    1850 2250
	1    0    0    -1  
$EndComp
Wire Wire Line
	1850 2200 1850 2250
$Comp
L power:+3.3V #PWR054
U 1 1 61F40420
P 1850 1900
F 0 "#PWR054" H 1850 1750 50  0001 C CNN
F 1 "+3.3V" H 1865 2073 50  0000 C CNN
F 2 "" H 1850 1900 50  0001 C CNN
F 3 "" H 1850 1900 50  0001 C CNN
	1    1850 1900
	1    0    0    -1  
$EndComp
Wire Wire Line
	1850 1900 1850 2000
$Comp
L Device:C_Small C29
U 1 1 61F4D1AF
P 2400 2100
F 0 "C29" H 2492 2146 50  0000 L CNN
F 1 "220nF" H 2492 2055 50  0000 L CNN
F 2 "Capacitor_SMD:C_0201_0603Metric" H 2400 2100 50  0001 C CNN
F 3 "~" H 2400 2100 50  0001 C CNN
	1    2400 2100
	1    0    0    -1  
$EndComp
$Comp
L power:GND #PWR062
U 1 1 61F4D1B5
P 2400 2250
F 0 "#PWR062" H 2400 2000 50  0001 C CNN
F 1 "GND" H 2405 2077 50  0000 C CNN
F 2 "" H 2400 2250 50  0001 C CNN
F 3 "" H 2400 2250 50  0001 C CNN
	1    2400 2250
	1    0    0    -1  
$EndComp
Wire Wire Line
	2400 2200 2400 2250
$Comp
L power:+3.3V #PWR061
U 1 1 61F4D1BC
P 2400 1900
F 0 "#PWR061" H 2400 1750 50  0001 C CNN
F 1 "+3.3V" H 2415 2073 50  0000 C CNN
F 2 "" H 2400 1900 50  0001 C CNN
F 3 "" H 2400 1900 50  0001 C CNN
	1    2400 1900
	1    0    0    -1  
$EndComp
Wire Wire Line
	2400 1900 2400 2000
$Comp
L Device:C_Small C32
U 1 1 61F5BDC1
P 2950 2100
F 0 "C32" H 3042 2146 50  0000 L CNN
F 1 "220nF" H 3042 2055 50  0000 L CNN
F 2 "Capacitor_SMD:C_0201_0603Metric" H 2950 2100 50  0001 C CNN
F 3 "~" H 2950 2100 50  0001 C CNN
	1    2950 2100
	1    0    0    -1  
$EndComp
$Comp
L power:GND #PWR067
U 1 1 61F5BDC7
P 2950 2250
F 0 "#PWR067" H 2950 2000 50  0001 C CNN
F 1 "GND" H 2955 2077 50  0000 C CNN
F 2 "" H 2950 2250 50  0001 C CNN
F 3 "" H 2950 2250 50  0001 C CNN
	1    2950 2250
	1    0    0    -1  
$EndComp
Wire Wire Line
	2950 2200 2950 2250
$Comp
L power:+3.3V #PWR066
U 1 1 61F5BDCE
P 2950 1900
F 0 "#PWR066" H 2950 1750 50  0001 C CNN
F 1 "+3.3V" H 2965 2073 50  0000 C CNN
F 2 "" H 2950 1900 50  0001 C CNN
F 3 "" H 2950 1900 50  0001 C CNN
	1    2950 1900
	1    0    0    -1  
$EndComp
Wire Wire Line
	2950 1900 2950 2000
$Comp
L Device:C_Small C35
U 1 1 61F5BDD5
P 3550 2100
F 0 "C35" H 3642 2146 50  0000 L CNN
F 1 "220nF" H 3642 2055 50  0000 L CNN
F 2 "Capacitor_SMD:C_0201_0603Metric" H 3550 2100 50  0001 C CNN
F 3 "~" H 3550 2100 50  0001 C CNN
	1    3550 2100
	1    0    0    -1  
$EndComp
$Comp
L power:GND #PWR073
U 1 1 61F5BDDB
P 3550 2250
F 0 "#PWR073" H 3550 2000 50  0001 C CNN
F 1 "GND" H 3555 2077 50  0000 C CNN
F 2 "" H 3550 2250 50  0001 C CNN
F 3 "" H 3550 2250 50  0001 C CNN
	1    3550 2250
	1    0    0    -1  
$EndComp
Wire Wire Line
	3550 2200 3550 2250
$Comp
L power:+3.3V #PWR072
U 1 1 61F5BDE2
P 3550 1900
F 0 "#PWR072" H 3550 1750 50  0001 C CNN
F 1 "+3.3V" H 3565 2073 50  0000 C CNN
F 2 "" H 3550 1900 50  0001 C CNN
F 3 "" H 3550 1900 50  0001 C CNN
	1    3550 1900
	1    0    0    -1  
$EndComp
Wire Wire Line
	3550 1900 3550 2000
$Comp
L Device:C_Small C41
U 1 1 61FF52C8
P 4100 2100
F 0 "C41" H 4192 2146 50  0000 L CNN
F 1 "220nF" H 4192 2055 50  0000 L CNN
F 2 "Capacitor_SMD:C_0201_0603Metric" H 4100 2100 50  0001 C CNN
F 3 "~" H 4100 2100 50  0001 C CNN
	1    4100 2100
	1    0    0    -1  
$EndComp
$Comp
L power:GND #PWR082
U 1 1 61FF52CE
P 4100 2250
F 0 "#PWR082" H 4100 2000 50  0001 C CNN
F 1 "GND" H 4105 2077 50  0000 C CNN
F 2 "" H 4100 2250 50  0001 C CNN
F 3 "" H 4100 2250 50  0001 C CNN
	1    4100 2250
	1    0    0    -1  
$EndComp
Wire Wire Line
	4100 2200 4100 2250
$Comp
L power:+3.3V #PWR081
U 1 1 61FF52D5
P 4100 1900
F 0 "#PWR081" H 4100 1750 50  0001 C CNN
F 1 "+3.3V" H 4115 2073 50  0000 C CNN
F 2 "" H 4100 1900 50  0001 C CNN
F 3 "" H 4100 1900 50  0001 C CNN
	1    4100 1900
	1    0    0    -1  
$EndComp
Wire Wire Line
	4100 1900 4100 2000
$Comp
L Device:C_Small C43
U 1 1 61FF52DC
P 4700 2100
F 0 "C43" H 4792 2146 50  0000 L CNN
F 1 "220nF" H 4792 2055 50  0000 L CNN
F 2 "Capacitor_SMD:C_0201_0603Metric" H 4700 2100 50  0001 C CNN
F 3 "~" H 4700 2100 50  0001 C CNN
	1    4700 2100
	1    0    0    -1  
$EndComp
$Comp
L power:GND #PWR085
U 1 1 61FF52E2
P 4700 2250
F 0 "#PWR085" H 4700 2000 50  0001 C CNN
F 1 "GND" H 4705 2077 50  0000 C CNN
F 2 "" H 4700 2250 50  0001 C CNN
F 3 "" H 4700 2250 50  0001 C CNN
	1    4700 2250
	1    0    0    -1  
$EndComp
Wire Wire Line
	4700 2200 4700 2250
$Comp
L power:+3.3V #PWR084
U 1 1 61FF52E9
P 4700 1900
F 0 "#PWR084" H 4700 1750 50  0001 C CNN
F 1 "+3.3V" H 4715 2073 50  0000 C CNN
F 2 "" H 4700 1900 50  0001 C CNN
F 3 "" H 4700 1900 50  0001 C CNN
	1    4700 1900
	1    0    0    -1  
$EndComp
Wire Wire Line
	4700 1900 4700 2000
$Comp
L MCIMX6Y0CVM05AB:MCIMX6Y0CVM05AB U?
U 4 1 61B9051D
P 8200 4700
AR Path="/61B9051D" Ref="U?"  Part="4" 
AR Path="/61B76634/61B9051D" Ref="U2"  Part="4" 
F 0 "U2" H 8150 5767 50  0000 C CNN
F 1 "MCIMX6Y0CVM05AB" H 8150 5676 50  0000 C CNN
F 2 "imx6_breakout:BGA-289_17x17_14.0x14.0mm" H 8200 4700 50  0001 L BNN
F 3 "" H 8200 4700 50  0001 L BNN
F 4 "IPC7351B" H 8200 4700 50  0001 L BNN "STANDARD"
F 5 "NXP" H 8200 4700 50  0001 L BNN "MANUFACTURER"
F 6 "1.2" H 8200 4700 50  0001 L BNN "PARTREV"
	4    8200 4700
	1    0    0    -1  
$EndComp
Wire Wire Line
	1900 5650 2600 5650
Wire Wire Line
	1900 5600 1900 5650
Wire Wire Line
	1900 5850 1900 5650
Connection ~ 1900 5650
$Comp
L power:+3.3V #PWR057
U 1 1 61BC8B8F
P 1900 5600
F 0 "#PWR057" H 1900 5450 50  0001 C CNN
F 1 "+3.3V" H 1842 5637 50  0000 R CNN
F 2 "" H 1900 5600 50  0001 C CNN
F 3 "" H 1900 5600 50  0001 C CNN
	1    1900 5600
	1    0    0    -1  
$EndComp
$EndSCHEMATC
